<?xml version="1.0" encoding="utf-8"?>
<!DOCTYPE eagle SYSTEM "eagle.dtd">
<eagle version="6.5.0">
<drawing>
<settings>
<setting alwaysvectorfont="yes"/>
<setting verticaltext="up"/>
</settings>
<grid distance="0.1" unitdist="inch" unit="inch" style="lines" multiple="1" display="no" altdistance="0.01" altunitdist="inch" altunit="inch"/>
<layers>
<layer number="1" name="Top" color="4" fill="1" visible="no" active="no"/>
<layer number="2" name="Route2" color="1" fill="3" visible="no" active="no"/>
<layer number="3" name="Route3" color="4" fill="3" visible="no" active="no"/>
<layer number="4" name="Route4" color="1" fill="4" visible="no" active="no"/>
<layer number="5" name="Route5" color="4" fill="4" visible="no" active="no"/>
<layer number="6" name="Route6" color="1" fill="8" visible="no" active="no"/>
<layer number="7" name="Route7" color="4" fill="8" visible="no" active="no"/>
<layer number="8" name="Route8" color="1" fill="2" visible="no" active="no"/>
<layer number="9" name="Route9" color="4" fill="2" visible="no" active="no"/>
<layer number="10" name="Route10" color="1" fill="7" visible="no" active="no"/>
<layer number="11" name="Route11" color="4" fill="7" visible="no" active="no"/>
<layer number="12" name="Route12" color="1" fill="5" visible="no" active="no"/>
<layer number="13" name="Route13" color="4" fill="5" visible="no" active="no"/>
<layer number="14" name="Route14" color="1" fill="6" visible="no" active="no"/>
<layer number="15" name="Route15" color="4" fill="6" visible="no" active="no"/>
<layer number="16" name="Bottom" color="1" fill="1" visible="no" active="no"/>
<layer number="17" name="Pads" color="2" fill="1" visible="no" active="no"/>
<layer number="18" name="Vias" color="2" fill="1" visible="no" active="no"/>
<layer number="19" name="Unrouted" color="6" fill="1" visible="no" active="no"/>
<layer number="20" name="Dimension" color="15" fill="1" visible="no" active="no"/>
<layer number="21" name="tPlace" color="7" fill="1" visible="no" active="no"/>
<layer number="22" name="bPlace" color="7" fill="1" visible="no" active="no"/>
<layer number="23" name="tOrigins" color="15" fill="1" visible="no" active="no"/>
<layer number="24" name="bOrigins" color="15" fill="1" visible="no" active="no"/>
<layer number="25" name="tNames" color="7" fill="1" visible="no" active="no"/>
<layer number="26" name="bNames" color="7" fill="1" visible="no" active="no"/>
<layer number="27" name="tValues" color="7" fill="1" visible="no" active="no"/>
<layer number="28" name="bValues" color="7" fill="1" visible="no" active="no"/>
<layer number="29" name="tStop" color="7" fill="3" visible="no" active="no"/>
<layer number="30" name="bStop" color="7" fill="6" visible="no" active="no"/>
<layer number="31" name="tCream" color="7" fill="4" visible="no" active="no"/>
<layer number="32" name="bCream" color="7" fill="5" visible="no" active="no"/>
<layer number="33" name="tFinish" color="6" fill="3" visible="no" active="no"/>
<layer number="34" name="bFinish" color="6" fill="6" visible="no" active="no"/>
<layer number="35" name="tGlue" color="7" fill="4" visible="no" active="no"/>
<layer number="36" name="bGlue" color="7" fill="5" visible="no" active="no"/>
<layer number="37" name="tTest" color="7" fill="1" visible="no" active="no"/>
<layer number="38" name="bTest" color="7" fill="1" visible="no" active="no"/>
<layer number="39" name="tKeepout" color="4" fill="11" visible="no" active="no"/>
<layer number="40" name="bKeepout" color="1" fill="11" visible="no" active="no"/>
<layer number="41" name="tRestrict" color="4" fill="10" visible="no" active="no"/>
<layer number="42" name="bRestrict" color="1" fill="10" visible="no" active="no"/>
<layer number="43" name="vRestrict" color="2" fill="10" visible="no" active="no"/>
<layer number="44" name="Drills" color="7" fill="1" visible="no" active="no"/>
<layer number="45" name="Holes" color="7" fill="1" visible="no" active="no"/>
<layer number="46" name="Milling" color="3" fill="1" visible="no" active="no"/>
<layer number="47" name="Measures" color="7" fill="1" visible="no" active="no"/>
<layer number="48" name="Document" color="7" fill="1" visible="no" active="no"/>
<layer number="49" name="Reference" color="7" fill="1" visible="no" active="no"/>
<layer number="50" name="dxf" color="7" fill="1" visible="no" active="no"/>
<layer number="51" name="tDocu" color="7" fill="1" visible="no" active="no"/>
<layer number="52" name="bDocu" color="7" fill="1" visible="no" active="no"/>
<layer number="53" name="tGND_GNDA" color="7" fill="9" visible="no" active="no"/>
<layer number="54" name="bGND_GNDA" color="1" fill="9" visible="no" active="no"/>
<layer number="56" name="wert" color="7" fill="1" visible="no" active="no"/>
<layer number="91" name="Nets" color="2" fill="1" visible="yes" active="yes"/>
<layer number="92" name="Busses" color="1" fill="1" visible="yes" active="yes"/>
<layer number="93" name="Pins" color="2" fill="1" visible="no" active="yes"/>
<layer number="94" name="Symbols" color="4" fill="1" visible="yes" active="yes"/>
<layer number="95" name="Names" color="7" fill="1" visible="yes" active="yes"/>
<layer number="96" name="Values" color="7" fill="1" visible="yes" active="yes"/>
<layer number="97" name="Info" color="7" fill="1" visible="yes" active="yes"/>
<layer number="98" name="Guide" color="6" fill="1" visible="yes" active="yes"/>
<layer number="100" name="Muster" color="7" fill="1" visible="no" active="no"/>
<layer number="101" name="Patch_Top" color="12" fill="4" visible="yes" active="yes"/>
<layer number="102" name="Vscore" color="7" fill="1" visible="yes" active="yes"/>
<layer number="103" name="tMap" color="7" fill="1" visible="yes" active="yes"/>
<layer number="104" name="Name" color="16" fill="1" visible="yes" active="yes"/>
<layer number="105" name="tPlate" color="7" fill="1" visible="yes" active="yes"/>
<layer number="106" name="bPlate" color="7" fill="1" visible="yes" active="yes"/>
<layer number="107" name="Crop" color="7" fill="1" visible="yes" active="yes"/>
<layer number="116" name="Patch_BOT" color="9" fill="4" visible="yes" active="yes"/>
<layer number="121" name="_tsilk" color="7" fill="1" visible="yes" active="yes"/>
<layer number="122" name="_bsilk" color="7" fill="1" visible="yes" active="yes"/>
<layer number="125" name="_tNames" color="7" fill="1" visible="no" active="yes"/>
<layer number="144" name="Drill_legend" color="7" fill="1" visible="no" active="yes"/>
<layer number="151" name="HeatSink" color="7" fill="1" visible="yes" active="yes"/>
<layer number="200" name="200bmp" color="1" fill="10" visible="yes" active="yes"/>
<layer number="201" name="201bmp" color="2" fill="10" visible="yes" active="yes"/>
<layer number="202" name="202bmp" color="3" fill="10" visible="yes" active="yes"/>
<layer number="203" name="203bmp" color="4" fill="10" visible="yes" active="yes"/>
<layer number="204" name="204bmp" color="5" fill="10" visible="yes" active="yes"/>
<layer number="205" name="205bmp" color="6" fill="10" visible="yes" active="yes"/>
<layer number="206" name="206bmp" color="7" fill="10" visible="yes" active="yes"/>
<layer number="207" name="207bmp" color="8" fill="10" visible="yes" active="yes"/>
<layer number="208" name="208bmp" color="9" fill="10" visible="yes" active="yes"/>
<layer number="209" name="209bmp" color="7" fill="1" visible="no" active="yes"/>
<layer number="210" name="210bmp" color="7" fill="1" visible="no" active="yes"/>
<layer number="211" name="211bmp" color="7" fill="1" visible="no" active="yes"/>
<layer number="212" name="212bmp" color="7" fill="1" visible="no" active="yes"/>
<layer number="213" name="213bmp" color="7" fill="1" visible="no" active="yes"/>
<layer number="214" name="214bmp" color="7" fill="1" visible="no" active="yes"/>
<layer number="215" name="215bmp" color="7" fill="1" visible="no" active="yes"/>
<layer number="216" name="216bmp" color="7" fill="1" visible="no" active="yes"/>
<layer number="217" name="217bmp" color="18" fill="1" visible="no" active="no"/>
<layer number="218" name="218bmp" color="19" fill="1" visible="no" active="no"/>
<layer number="219" name="219bmp" color="20" fill="1" visible="no" active="no"/>
<layer number="220" name="220bmp" color="21" fill="1" visible="no" active="no"/>
<layer number="221" name="221bmp" color="22" fill="1" visible="no" active="no"/>
<layer number="222" name="222bmp" color="23" fill="1" visible="no" active="no"/>
<layer number="223" name="223bmp" color="24" fill="1" visible="no" active="no"/>
<layer number="224" name="224bmp" color="25" fill="1" visible="no" active="no"/>
<layer number="250" name="Descript" color="3" fill="1" visible="no" active="no"/>
<layer number="251" name="SMDround" color="12" fill="11" visible="no" active="no"/>
<layer number="254" name="cooling" color="7" fill="1" visible="yes" active="yes"/>
</layers>
<schematic xreflabel="%F%N/%S.%C%R" xrefpart="/%S.%C%R">
<libraries>
<library name="frames">
<description>&lt;b&gt;Frames for Sheet and Layout&lt;/b&gt;</description>
<packages>
</packages>
<symbols>
<symbol name="LETTER_L">
<frame x1="0" y1="0" x2="248.92" y2="185.42" columns="12" rows="17" layer="94" border-left="no" border-top="no" border-right="no" border-bottom="no"/>
</symbol>
<symbol name="DOCFIELD">
<wire x1="0" y1="0" x2="71.12" y2="0" width="0.1016" layer="94"/>
<wire x1="101.6" y1="15.24" x2="87.63" y2="15.24" width="0.1016" layer="94"/>
<wire x1="0" y1="0" x2="0" y2="5.08" width="0.1016" layer="94"/>
<wire x1="0" y1="5.08" x2="71.12" y2="5.08" width="0.1016" layer="94"/>
<wire x1="0" y1="5.08" x2="0" y2="15.24" width="0.1016" layer="94"/>
<wire x1="101.6" y1="15.24" x2="101.6" y2="5.08" width="0.1016" layer="94"/>
<wire x1="71.12" y1="5.08" x2="71.12" y2="0" width="0.1016" layer="94"/>
<wire x1="71.12" y1="5.08" x2="87.63" y2="5.08" width="0.1016" layer="94"/>
<wire x1="71.12" y1="0" x2="101.6" y2="0" width="0.1016" layer="94"/>
<wire x1="87.63" y1="15.24" x2="87.63" y2="5.08" width="0.1016" layer="94"/>
<wire x1="87.63" y1="15.24" x2="0" y2="15.24" width="0.1016" layer="94"/>
<wire x1="87.63" y1="5.08" x2="101.6" y2="5.08" width="0.1016" layer="94"/>
<wire x1="101.6" y1="5.08" x2="101.6" y2="0" width="0.1016" layer="94"/>
<wire x1="0" y1="15.24" x2="0" y2="22.86" width="0.1016" layer="94"/>
<wire x1="101.6" y1="35.56" x2="0" y2="35.56" width="0.1016" layer="94"/>
<wire x1="101.6" y1="35.56" x2="101.6" y2="22.86" width="0.1016" layer="94"/>
<wire x1="0" y1="22.86" x2="101.6" y2="22.86" width="0.1016" layer="94"/>
<wire x1="0" y1="22.86" x2="0" y2="35.56" width="0.1016" layer="94"/>
<wire x1="101.6" y1="22.86" x2="101.6" y2="15.24" width="0.1016" layer="94"/>
<text x="1.27" y="1.27" size="2.54" layer="94" font="vector">Date:</text>
<text x="12.7" y="1.27" size="2.54" layer="94" font="vector">&gt;LAST_DATE_TIME</text>
<text x="72.39" y="1.27" size="2.54" layer="94" font="vector">Sheet:</text>
<text x="86.36" y="1.27" size="2.54" layer="94" font="vector">&gt;SHEET</text>
<text x="88.9" y="11.43" size="2.54" layer="94" font="vector">REV:</text>
<text x="1.27" y="19.05" size="2.54" layer="94" font="vector">TITLE:</text>
<text x="1.27" y="11.43" size="2.54" layer="94" font="vector">Document Number:</text>
<text x="17.78" y="19.05" size="2.54" layer="94" font="vector">&gt;DRAWING_NAME</text>
</symbol>
</symbols>
<devicesets>
<deviceset name="LETTER_L" prefix="FRAME" uservalue="yes">
<description>&lt;b&gt;FRAME&lt;/b&gt;&lt;p&gt;
LETTER landscape</description>
<gates>
<gate name="G$1" symbol="LETTER_L" x="0" y="0"/>
<gate name="G$2" symbol="DOCFIELD" x="147.32" y="0" addlevel="must"/>
</gates>
<devices>
<device name="">
<technologies>
<technology name=""/>
</technologies>
</device>
</devices>
</deviceset>
</devicesets>
</library>
<library name="SLIM">
<packages>
<package name="SSOP28">
<smd name="1" x="-4.16" y="-3.6" dx="0.42" dy="1.34" layer="1"/>
<smd name="2" x="-3.52" y="-3.6" dx="0.42" dy="1.34" layer="1"/>
<smd name="3" x="-2.88" y="-3.6" dx="0.42" dy="1.34" layer="1"/>
<smd name="4" x="-2.24" y="-3.6" dx="0.42" dy="1.34" layer="1"/>
<smd name="5" x="-1.6" y="-3.6" dx="0.42" dy="1.34" layer="1"/>
<smd name="6" x="-0.96" y="-3.6" dx="0.42" dy="1.34" layer="1"/>
<smd name="7" x="-0.32" y="-3.6" dx="0.42" dy="1.34" layer="1"/>
<smd name="8" x="0.32" y="-3.6" dx="0.42" dy="1.34" layer="1"/>
<smd name="9" x="0.96" y="-3.6" dx="0.42" dy="1.34" layer="1"/>
<smd name="10" x="1.6" y="-3.6" dx="0.42" dy="1.34" layer="1"/>
<smd name="11" x="2.24" y="-3.6" dx="0.42" dy="1.34" layer="1"/>
<smd name="12" x="2.88" y="-3.6" dx="0.42" dy="1.34" layer="1"/>
<smd name="13" x="3.52" y="-3.6" dx="0.42" dy="1.34" layer="1"/>
<smd name="14" x="4.16" y="-3.6" dx="0.42" dy="1.34" layer="1"/>
<smd name="15" x="4.16" y="3.6" dx="0.42" dy="1.34" layer="1"/>
<smd name="16" x="3.52" y="3.6" dx="0.42" dy="1.34" layer="1"/>
<smd name="17" x="2.88" y="3.6" dx="0.42" dy="1.34" layer="1"/>
<smd name="18" x="2.24" y="3.6" dx="0.42" dy="1.34" layer="1"/>
<smd name="19" x="1.6" y="3.6" dx="0.42" dy="1.34" layer="1"/>
<smd name="20" x="0.96" y="3.6" dx="0.42" dy="1.34" layer="1"/>
<smd name="21" x="0.32" y="3.6" dx="0.42" dy="1.34" layer="1"/>
<smd name="22" x="-0.32" y="3.6" dx="0.42" dy="1.34" layer="1"/>
<smd name="23" x="-0.96" y="3.6" dx="0.42" dy="1.34" layer="1"/>
<smd name="24" x="-1.6" y="3.6" dx="0.42" dy="1.34" layer="1"/>
<smd name="25" x="-2.24" y="3.6" dx="0.42" dy="1.34" layer="1"/>
<smd name="26" x="-2.88" y="3.6" dx="0.42" dy="1.34" layer="1"/>
<smd name="27" x="-3.52" y="3.6" dx="0.42" dy="1.34" layer="1"/>
<smd name="28" x="-4.16" y="3.6" dx="0.42" dy="1.34" layer="1"/>
<wire x1="-5.2" y1="-2.4" x2="-5.2" y2="2.4" width="0.2032" layer="21"/>
<wire x1="5.2" y1="-2.4" x2="5.2" y2="2.4" width="0.2032" layer="21"/>
<text x="-6.02" y="-0.65" size="0.635" layer="25" ratio="20" rot="R90">&gt;NAME</text>
<text x="-1.27" y="-0.33" size="0.635" layer="27" ratio="20">&gt;VALUE</text>
<wire x1="-4.8" y1="-3.33" x2="-4.8" y2="-3.87" width="0.2032" layer="21"/>
</package>
<package name="78MXXL">
<description>&lt;b&gt;VOLTAGE REGULATOR&lt;/b&gt;</description>
<wire x1="-5.207" y1="-1.27" x2="-5.207" y2="7.3406" width="0.1524" layer="21"/>
<wire x1="-3.5052" y1="7.3406" x2="-3.5052" y2="8.8138" width="0.1524" layer="21"/>
<wire x1="-3.5052" y1="8.8138" x2="-5.207" y2="8.8138" width="0.1524" layer="21"/>
<wire x1="5.207" y1="8.8138" x2="3.5052" y2="8.8138" width="0.1524" layer="21"/>
<wire x1="3.5052" y1="8.8138" x2="3.5052" y2="7.3406" width="0.1524" layer="21"/>
<wire x1="5.2578" y1="-1.27" x2="5.2578" y2="7.3406" width="0.1524" layer="21"/>
<wire x1="-5.207" y1="7.3406" x2="-3.5052" y2="7.3406" width="0.1524" layer="21"/>
<wire x1="3.8354" y1="-1.27" x2="3.8354" y2="7.3406" width="0.1524" layer="21"/>
<wire x1="-5.207" y1="-1.27" x2="3.8354" y2="-1.27" width="0.1524" layer="21"/>
<wire x1="5.207" y1="21.717" x2="5.207" y2="8.8138" width="0.1524" layer="21"/>
<wire x1="5.207" y1="21.717" x2="-5.207" y2="21.717" width="0.1524" layer="21"/>
<wire x1="-5.207" y1="21.717" x2="-5.207" y2="8.8138" width="0.1524" layer="21"/>
<wire x1="-3.5052" y1="7.3406" x2="3.5052" y2="7.3406" width="0.1524" layer="21"/>
<wire x1="3.8354" y1="-1.27" x2="5.2578" y2="-1.27" width="0.1524" layer="21"/>
<wire x1="3.8354" y1="7.3406" x2="5.2578" y2="7.3406" width="0.1524" layer="21"/>
<wire x1="3.5052" y1="7.3406" x2="3.8354" y2="7.3406" width="0.1524" layer="21"/>
<wire x1="-4.953" y1="-1.016" x2="4.953" y2="-1.016" width="0.0508" layer="21"/>
<wire x1="4.953" y1="7.112" x2="4.953" y2="-1.016" width="0.0508" layer="21"/>
<wire x1="4.953" y1="7.112" x2="-4.953" y2="7.112" width="0.1524" layer="21"/>
<wire x1="-4.953" y1="-1.016" x2="-4.953" y2="7.112" width="0.0508" layer="21"/>
<circle x="-4.1402" y="-0.2286" radius="0.4318" width="0" layer="21"/>
<circle x="0" y="17.78" radius="1.651" width="0.1524" layer="21"/>
<circle x="0" y="17.78" radius="4.191" width="0" layer="42"/>
<circle x="0" y="17.78" radius="4.191" width="0" layer="43"/>
<pad name="IN" x="-2.54" y="-5.08" drill="1.016" shape="long" rot="R90"/>
<pad name="GND" x="0" y="-5.08" drill="1.016" shape="long" rot="R90"/>
<pad name="OUT" x="2.54" y="-5.08" drill="1.016" shape="long" rot="R90"/>
<text x="-4.445" y="4.826" size="1.778" layer="25" ratio="10">&gt;NAME</text>
<text x="-4.445" y="2.54" size="1.778" layer="27" ratio="10">&gt;VALUE</text>
<text x="-0.508" y="-0.635" size="1.27" layer="51" ratio="10">-</text>
<text x="2.032" y="-0.635" size="1.27" layer="51" ratio="10">O</text>
<text x="-2.921" y="-0.635" size="1.27" layer="51" ratio="10">I</text>
<rectangle x1="-0.635" y1="-2.54" x2="0.635" y2="-1.27" layer="21"/>
<rectangle x1="1.905" y1="-2.54" x2="3.175" y2="-1.27" layer="21"/>
<rectangle x1="-3.175" y1="-2.54" x2="-1.905" y2="-1.27" layer="21"/>
<rectangle x1="2.159" y1="-5.08" x2="2.921" y2="-3.429" layer="51"/>
<rectangle x1="2.159" y1="-3.429" x2="2.921" y2="-2.54" layer="21"/>
<rectangle x1="-0.381" y1="-5.08" x2="0.381" y2="-3.429" layer="51"/>
<rectangle x1="-2.921" y1="-5.08" x2="-2.159" y2="-3.429" layer="51"/>
<rectangle x1="-0.381" y1="-3.429" x2="0.381" y2="-2.54" layer="21"/>
<rectangle x1="-2.921" y1="-3.429" x2="-2.159" y2="-2.54" layer="21"/>
<hole x="0" y="17.78" drill="3.302"/>
</package>
<package name="TO252">
<description>&lt;b&gt;SMALL OUTLINE TRANSISTOR&lt;/b&gt;&lt;p&gt;
TS-003</description>
<wire x1="3.2766" y1="3.8354" x2="3.277" y2="-2.159" width="0.2032" layer="21"/>
<wire x1="3.277" y1="-2.159" x2="-3.277" y2="-2.159" width="0.2032" layer="21"/>
<wire x1="-3.277" y1="-2.159" x2="-3.2766" y2="3.8354" width="0.2032" layer="21"/>
<wire x1="-3.277" y1="3.835" x2="3.2774" y2="3.8346" width="0.2032" layer="51"/>
<wire x1="-3.973" y1="5.983" x2="3.973" y2="5.983" width="0.0508" layer="39"/>
<wire x1="3.973" y1="-5.983" x2="-3.973" y2="-5.983" width="0.0508" layer="39"/>
<wire x1="-3.973" y1="-5.983" x2="-3.973" y2="5.983" width="0.0508" layer="39"/>
<wire x1="3.973" y1="5.983" x2="3.973" y2="-5.983" width="0.0508" layer="39"/>
<wire x1="-2.5654" y1="3.937" x2="-2.5654" y2="4.6482" width="0.2032" layer="51"/>
<wire x1="-2.5654" y1="4.6482" x2="-2.1082" y2="5.1054" width="0.2032" layer="51"/>
<wire x1="-2.1082" y1="5.1054" x2="2.1082" y2="5.1054" width="0.2032" layer="51"/>
<wire x1="2.1082" y1="5.1054" x2="2.5654" y2="4.6482" width="0.2032" layer="51"/>
<wire x1="2.5654" y1="4.6482" x2="2.5654" y2="3.937" width="0.2032" layer="51"/>
<wire x1="2.5654" y1="3.937" x2="-2.5654" y2="3.937" width="0.2032" layer="51"/>
<smd name="3" x="0" y="2.5" dx="5.4" dy="6.2" layer="1"/>
<smd name="1" x="-2.28" y="-4.8" dx="1" dy="1.6" layer="1"/>
<smd name="2" x="2.28" y="-4.8" dx="1" dy="1.6" layer="1"/>
<text x="-3.81" y="-2.54" size="0.635" layer="25" ratio="20" rot="R90">&gt;NAME</text>
<text x="5.08" y="-2.54" size="0.635" layer="27" ratio="20" rot="R90">&gt;VALUE</text>
<rectangle x1="-2.7178" y1="-5.1562" x2="-1.8542" y2="-2.2606" layer="51"/>
<rectangle x1="1.8542" y1="-5.1562" x2="2.7178" y2="-2.2606" layer="51"/>
<rectangle x1="-0.4318" y1="-3.0226" x2="0.4318" y2="-2.2606" layer="21"/>
<polygon width="0.1998" layer="51">
<vertex x="-2.5654" y="3.937"/>
<vertex x="-2.5654" y="4.6482"/>
<vertex x="-2.1082" y="5.1054"/>
<vertex x="2.1082" y="5.1054"/>
<vertex x="2.5654" y="4.6482"/>
<vertex x="2.5654" y="3.937"/>
</polygon>
</package>
<package name="SOT89">
<description>SOT98 Basis Collector Emitter</description>
<wire x1="2.235" y1="-1.245" x2="-2.235" y2="-1.245" width="0.127" layer="51"/>
<wire x1="2.235" y1="1.219" x2="2.235" y2="-1.245" width="0.127" layer="51"/>
<wire x1="-2.235" y1="-1.245" x2="-2.235" y2="1.219" width="0.127" layer="51"/>
<wire x1="-2.235" y1="1.219" x2="2.235" y2="1.219" width="0.127" layer="51"/>
<wire x1="-0.7874" y1="1.5748" x2="-0.3556" y2="2.0066" width="0.1998" layer="51"/>
<wire x1="-0.3556" y1="2.0066" x2="0.3556" y2="2.0066" width="0.1998" layer="51"/>
<wire x1="0.3556" y1="2.0066" x2="0.7874" y2="1.5748" width="0.1998" layer="51"/>
<wire x1="0.7874" y1="1.5748" x2="0.7874" y2="1.2954" width="0.1998" layer="51"/>
<wire x1="0.7874" y1="1.2954" x2="-0.7874" y2="1.2954" width="0.1998" layer="51"/>
<wire x1="-0.7874" y1="1.2954" x2="-0.7874" y2="1.5748" width="0.1998" layer="51"/>
<smd name="1" x="-1.6" y="-2" dx="1.2" dy="1.5" layer="1"/>
<smd name="3" x="1.6" y="-2" dx="1.2" dy="1.5" layer="1"/>
<smd name="2" x="0" y="-2" dx="1" dy="1.5" layer="1"/>
<smd name="4" x="0" y="1.25" dx="2.4" dy="3" layer="1"/>
<text x="-2.54" y="3.175" size="0.635" layer="25" ratio="20">&gt;NAME</text>
<text x="-2.4051" y="-4.3449" size="0.635" layer="27" ratio="20">&gt;VALUE</text>
<rectangle x1="-1.7272" y1="-2.1082" x2="-1.27" y2="-1.27" layer="51"/>
<rectangle x1="1.27" y1="-2.1082" x2="1.7272" y2="-1.27" layer="51"/>
<rectangle x1="-0.2794" y1="-2.1082" x2="0.2794" y2="-1.27" layer="51"/>
<rectangle x1="-0.4" y1="-2.68" x2="0.4" y2="-1.28" layer="31"/>
<polygon width="0.1998" layer="51">
<vertex x="-0.7874" y="1.3208"/>
<vertex x="-0.7874" y="1.5748"/>
<vertex x="-0.3556" y="2.0066"/>
<vertex x="0.3048" y="2.0066"/>
<vertex x="0.3556" y="2.0066"/>
<vertex x="0.7874" y="1.5748"/>
<vertex x="0.7874" y="1.2954"/>
<vertex x="-0.7874" y="1.2954"/>
</polygon>
<polygon width="0.25" layer="29">
<vertex x="-1.2" y="-0.25"/>
<vertex x="-0.5" y="-1.25"/>
<vertex x="0.5" y="-1.25"/>
<vertex x="1.1238" y="-0.25"/>
<vertex x="1.1238" y="1.7"/>
<vertex x="-1.2" y="1.7"/>
</polygon>
<polygon width="0.2032" layer="1">
<vertex x="-1.0984" y="-0.25"/>
<vertex x="-0.3984" y="-1.25"/>
<vertex x="0.3984" y="-1.25"/>
<vertex x="1.0984" y="-0.25"/>
<vertex x="1.0984" y="1.7"/>
<vertex x="-1.0984" y="1.7"/>
</polygon>
<wire x1="-1.5" y1="1.675" x2="-2.3" y2="1.675" width="0.2032" layer="21"/>
<wire x1="-2.3" y1="1.675" x2="-2.3" y2="-1" width="0.2032" layer="21"/>
<wire x1="1.5" y1="1.675" x2="2.3" y2="1.675" width="0.2032" layer="21"/>
<wire x1="2.3" y1="1.675" x2="2.3" y2="-1" width="0.2032" layer="21"/>
</package>
<package name="0805-IND">
<wire x1="-0.15" y1="0.8" x2="0.15" y2="0.8" width="0.2032" layer="21"/>
<wire x1="-0.15" y1="-0.8" x2="0.15" y2="-0.8" width="0.2032" layer="21"/>
<smd name="1" x="-0.875" y="0" dx="1" dy="1.75" layer="1" thermals="no"/>
<smd name="2" x="0.875" y="0" dx="1" dy="1.75" layer="1" thermals="no"/>
<text x="-1.362" y="1.3255" size="0.635" layer="25" ratio="20">&gt;NAME</text>
<text x="-1.016" y="-1.397" size="0.4064" layer="27">&gt;VALUE</text>
</package>
<package name="0805">
<wire x1="-0.3" y1="0.6" x2="0.3" y2="0.6" width="0.2032" layer="21"/>
<wire x1="-0.3" y1="-0.6" x2="0.3" y2="-0.6" width="0.2032" layer="21"/>
<smd name="1" x="-0.9" y="0" dx="0.8" dy="1.2" layer="1" thermals="no"/>
<smd name="2" x="0.9" y="0" dx="0.8" dy="1.2" layer="1" thermals="no"/>
<text x="-0.762" y="0.8255" size="0.635" layer="25" ratio="20">&gt;NAME</text>
<text x="-1.016" y="-1.397" size="0.4064" layer="27">&gt;VALUE</text>
</package>
<package name="1206">
<wire x1="-2.473" y1="0.983" x2="2.473" y2="0.983" width="0.0508" layer="39"/>
<wire x1="2.473" y1="-0.983" x2="-2.473" y2="-0.983" width="0.0508" layer="39"/>
<wire x1="-2.473" y1="-0.983" x2="-2.473" y2="0.983" width="0.0508" layer="39"/>
<wire x1="2.473" y1="0.983" x2="2.473" y2="-0.983" width="0.0508" layer="39"/>
<wire x1="-0.965" y1="0.787" x2="0.965" y2="0.787" width="0.1016" layer="51"/>
<wire x1="-0.965" y1="-0.787" x2="0.965" y2="-0.787" width="0.1016" layer="51"/>
<smd name="1" x="-1.4" y="0" dx="1.6" dy="1.8" layer="1"/>
<smd name="2" x="1.4" y="0" dx="1.6" dy="1.8" layer="1"/>
<text x="-1.27" y="1.143" size="0.4064" layer="25">&gt;NAME</text>
<text x="-1.397" y="-1.524" size="0.4064" layer="27">&gt;VALUE</text>
<rectangle x1="-1.7018" y1="-0.8509" x2="-0.9517" y2="0.8491" layer="51"/>
<rectangle x1="0.9517" y1="-0.8491" x2="1.7018" y2="0.8509" layer="51"/>
<rectangle x1="-0.1999" y1="-0.4001" x2="0.1999" y2="0.4001" layer="35"/>
</package>
<package name="EIA3216">
<wire x1="-1" y1="-1.2" x2="-2.5" y2="-1.2" width="0.1524" layer="21"/>
<wire x1="-2.5" y1="-1.2" x2="-2.5" y2="1.2" width="0.1524" layer="21"/>
<wire x1="-2.5" y1="1.2" x2="-1" y2="1.2" width="0.1524" layer="21"/>
<wire x1="1" y1="-1.2" x2="2.1" y2="-1.2" width="0.1524" layer="21"/>
<wire x1="2.1" y1="-1.2" x2="2.5" y2="-0.8" width="0.1524" layer="21"/>
<wire x1="2.5" y1="-0.8" x2="2.5" y2="0.8" width="0.1524" layer="21"/>
<wire x1="2.5" y1="0.8" x2="2.1" y2="1.2" width="0.1524" layer="21"/>
<wire x1="2.1" y1="1.2" x2="1" y2="1.2" width="0.1524" layer="21"/>
<wire x1="0.381" y1="1.016" x2="0.381" y2="-1.016" width="0.1524" layer="21"/>
<smd name="C" x="-1.4" y="0" dx="1.6" dy="1.4" layer="1" rot="R90"/>
<smd name="A" x="1.4" y="0" dx="1.6" dy="1.4" layer="1" rot="R90"/>
<text x="-2.54" y="1.381" size="0.635" layer="25" ratio="20">&gt;NAME</text>
<text x="0.408" y="1.332" size="0.635" layer="27" ratio="20">&gt;VALUE</text>
</package>
<package name="SLIM_COAX_PAD">
<pad name="P$1" x="0" y="0" drill="1.5"/>
<smd name="P$2" x="0" y="-2.667" dx="1.27" dy="0.635" layer="16" stop="no" thermals="no" cream="no"/>
<polygon width="0.0508" layer="16">
</polygon>
<text x="5.08" y="1.27" size="0.635" layer="25" ratio="20" align="center-left">&gt;NAME</text>
<rectangle x1="-3.81" y1="-3.81" x2="3.81" y2="3.81" layer="30"/>
<text x="5.08" y="0" size="0.635" layer="25" ratio="20" rot="MR0" align="center-right">&gt;NAME</text>
</package>
<package name="SOD323">
<description>&lt;b&gt;SOD323 Reflow soldering&lt;/b&gt; Philips SC01_Mounting_1996.pdf</description>
<wire x1="-1" y1="0.7" x2="1" y2="0.7" width="0.1524" layer="51"/>
<wire x1="1" y1="0.7" x2="1" y2="-0.7" width="0.1524" layer="51"/>
<wire x1="1" y1="-0.7" x2="-1" y2="-0.7" width="0.1524" layer="51"/>
<wire x1="-1" y1="-0.7" x2="-1" y2="0.7" width="0.1524" layer="51"/>
<wire x1="-0.3" y1="0" x2="0.3" y2="0.4" width="0.1524" layer="21"/>
<wire x1="0.3" y1="0.4" x2="0.3" y2="-0.4" width="0.1524" layer="21"/>
<wire x1="0.3" y1="-0.4" x2="-0.3" y2="0" width="0.1524" layer="21"/>
<smd name="C" x="-1.25" y="0" dx="0.6" dy="0.7" layer="1"/>
<smd name="A" x="1.25" y="0" dx="0.6" dy="0.7" layer="1"/>
<text x="-1.5" y="1" size="0.635" layer="25" ratio="20">&gt;NAME</text>
<text x="-1.5" y="-1.5" size="0.635" layer="27" ratio="20">&gt;VALUE</text>
<wire x1="-0.4" y1="0.4" x2="-0.4" y2="-0.4" width="0.1524" layer="21"/>
<wire x1="-1.3" y1="0.55" x2="-1" y2="0.7" width="0.2032" layer="21"/>
<wire x1="-1" y1="0.7" x2="1" y2="0.7" width="0.2032" layer="21"/>
<wire x1="1" y1="0.7" x2="1" y2="0.55" width="0.2032" layer="21"/>
<wire x1="-1.3" y1="-0.55" x2="-1" y2="-0.7" width="0.2032" layer="21"/>
<wire x1="-1" y1="-0.7" x2="1" y2="-0.7" width="0.2032" layer="21"/>
<wire x1="1" y1="-0.7" x2="1" y2="-0.55" width="0.2032" layer="21"/>
</package>
<package name="CONN-12PIN">
<pad name="1" x="-13.97" y="0" drill="1.016" shape="square" rot="R90"/>
<pad name="2" x="-11.43" y="0" drill="1.016" rot="R90"/>
<pad name="3" x="-8.89" y="0" drill="1.016" rot="R90"/>
<pad name="4" x="-6.35" y="0" drill="1.016" rot="R90"/>
<pad name="5" x="-3.81" y="0" drill="1.016" rot="R90"/>
<pad name="6" x="-1.27" y="0" drill="1.016" rot="R90"/>
<text x="-15.24" y="1.651" size="0.635" layer="25" ratio="20">&gt;NAME</text>
<text x="-15.24" y="-2.921" size="0.635" layer="27" ratio="20">&gt;VALUE</text>
<wire x1="-15.24" y1="1.27" x2="15.24" y2="1.27" width="0.2032" layer="21"/>
<wire x1="15.24" y1="1.27" x2="15.24" y2="-1.27" width="0.2032" layer="21"/>
<wire x1="15.24" y1="-1.27" x2="-15.24" y2="-1.27" width="0.2032" layer="21"/>
<wire x1="-15.24" y1="-1.27" x2="-15.24" y2="1.27" width="0.2032" layer="21"/>
<pad name="7" x="1.27" y="0" drill="1.016" rot="R90"/>
<pad name="8" x="3.81" y="0" drill="1.016" rot="R90"/>
<pad name="9" x="6.35" y="0" drill="1.016" rot="R90"/>
<pad name="10" x="8.89" y="0" drill="1.016" rot="R90"/>
<pad name="11" x="11.43" y="0" drill="1.016" rot="R90"/>
<pad name="12" x="13.97" y="0" drill="1.016" rot="R90"/>
</package>
<package name="SC70-5L">
<description>&lt;b&gt;SC-70 Package&lt;/b&gt;</description>
<wire x1="1.1" y1="-0.5" x2="-1.1" y2="-0.5" width="0.2032" layer="51"/>
<wire x1="-1.1" y1="-0.5" x2="-1.1" y2="0.5" width="0.2032" layer="21"/>
<wire x1="-1.1" y1="0.5" x2="1.1" y2="0.5" width="0.2032" layer="51"/>
<wire x1="1.1" y1="0.5" x2="1.1" y2="-0.5" width="0.2032" layer="21"/>
<circle x="-0.65" y="-0.2" radius="0.15" width="0" layer="21"/>
<smd name="4" x="0.65" y="0.85" dx="0.35" dy="0.8" layer="1"/>
<smd name="5" x="-0.65" y="0.85" dx="0.35" dy="0.8" layer="1"/>
<smd name="1" x="-0.65" y="-0.85" dx="0.35" dy="0.8" layer="1"/>
<smd name="2" x="0" y="-0.85" dx="0.35" dy="0.8" layer="1"/>
<smd name="3" x="0.65" y="-0.85" dx="0.35" dy="0.8" layer="1"/>
<text x="-1.2" y="1.35" size="1.016" layer="25">&gt;NAME</text>
<text x="-1.2" y="-2.35" size="1.016" layer="27">&gt;VALUE</text>
<rectangle x1="0.5" y1="0.6" x2="0.8" y2="1.1" layer="51"/>
<rectangle x1="-0.8" y1="0.6" x2="-0.5" y2="1.1" layer="51"/>
<rectangle x1="-0.8" y1="-1.1" x2="-0.5" y2="-0.6" layer="51"/>
<rectangle x1="-0.15" y1="-1.1" x2="0.15" y2="-0.6" layer="51"/>
<rectangle x1="0.5" y1="-1.1" x2="0.8" y2="-0.6" layer="51"/>
</package>
<package name="SOT23-5L">
<description>&lt;b&gt;Small Outline Transistor&lt;/b&gt;</description>
<wire x1="1.422" y1="0.81" x2="1.422" y2="-0.81" width="0.1524" layer="21"/>
<wire x1="1.422" y1="-0.81" x2="-1.422" y2="-0.81" width="0.1524" layer="51"/>
<wire x1="-1.422" y1="-0.81" x2="-1.422" y2="0.81" width="0.1524" layer="21"/>
<wire x1="-1.422" y1="0.81" x2="1.422" y2="0.81" width="0.1524" layer="51"/>
<wire x1="-0.5" y1="0.81" x2="0.5" y2="0.81" width="0.1524" layer="21"/>
<smd name="1" x="-0.95" y="-1.3" dx="0.55" dy="1.2" layer="1"/>
<smd name="2" x="0" y="-1.3" dx="0.55" dy="1.2" layer="1"/>
<smd name="3" x="0.95" y="-1.3" dx="0.55" dy="1.2" layer="1"/>
<smd name="4" x="0.95" y="1.3" dx="0.55" dy="1.2" layer="1"/>
<smd name="5" x="-0.95" y="1.3" dx="0.55" dy="1.2" layer="1"/>
<text x="-1.905" y="2.405" size="0.635" layer="25" ratio="20">&gt;NAME</text>
<text x="-1.905" y="-3.175" size="0.635" layer="27" ratio="20">&gt;VALUE</text>
<rectangle x1="-1.2" y1="-1.5" x2="-0.7" y2="-0.85" layer="51"/>
<rectangle x1="-0.25" y1="-1.5" x2="0.25" y2="-0.85" layer="51"/>
<rectangle x1="0.7" y1="-1.5" x2="1.2" y2="-0.85" layer="51"/>
<rectangle x1="0.7" y1="0.85" x2="1.2" y2="1.5" layer="51"/>
<rectangle x1="-1.2" y1="0.85" x2="-0.7" y2="1.5" layer="51"/>
</package>
<package name="XTALFILTER">
<wire x1="-3.277" y1="3.835" x2="3.2774" y2="3.8346" width="0.2032" layer="51"/>
<wire x1="-3.973" y1="5.983" x2="3.973" y2="5.983" width="0.0508" layer="39"/>
<wire x1="-2.5654" y1="3.937" x2="-2.5654" y2="4.6482" width="0.2032" layer="51"/>
<wire x1="-2.5654" y1="4.6482" x2="-2.1082" y2="5.1054" width="0.2032" layer="51"/>
<wire x1="-2.1082" y1="5.1054" x2="2.1082" y2="5.1054" width="0.2032" layer="51"/>
<wire x1="2.1082" y1="5.1054" x2="2.5654" y2="4.6482" width="0.2032" layer="51"/>
<wire x1="2.5654" y1="4.6482" x2="2.5654" y2="3.937" width="0.2032" layer="51"/>
<wire x1="2.5654" y1="3.937" x2="-2.5654" y2="3.937" width="0.2032" layer="51"/>
<smd name="3" x="0" y="2" dx="10" dy="10" layer="1"/>
<smd name="1" x="-2.28" y="-4.8" dx="1" dy="1.6" layer="1"/>
<smd name="2" x="2.28" y="-4.8" dx="1" dy="1.6" layer="1"/>
<text x="6.5" y="-2.5" size="0.635" layer="25" ratio="20" rot="R90">&gt;NAME</text>
<text x="6.5" y="1" size="0.635" layer="27" ratio="20" rot="R90">&gt;VALUE</text>
<rectangle x1="-2.7178" y1="-5.1562" x2="-1.8542" y2="-2.2606" layer="51"/>
<rectangle x1="1.8542" y1="-5.1562" x2="2.7178" y2="-2.2606" layer="51"/>
<polygon width="0.1998" layer="51">
<vertex x="-2.5654" y="3.937"/>
<vertex x="-2.5654" y="4.6482"/>
<vertex x="-2.1082" y="5.1054"/>
<vertex x="2.1082" y="5.1054"/>
<vertex x="2.5654" y="4.6482"/>
<vertex x="2.5654" y="3.937"/>
</polygon>
<polygon width="0.2" layer="29">
<vertex x="-0.5" y="-5.5"/>
<vertex x="0.4" y="-5.5"/>
<vertex x="0.4" y="3.5"/>
<vertex x="-0.5" y="3.5"/>
</polygon>
<polygon width="0.2" layer="1">
<vertex x="-0.5" y="-5.5"/>
<vertex x="0.4" y="-5.5"/>
<vertex x="0.4" y="3.5"/>
<vertex x="-0.5" y="3.5"/>
</polygon>
</package>
</packages>
<symbols>
<symbol name="AD9850">
<pin name="D3" x="-15.24" y="-10.16" length="short"/>
<pin name="D2" x="-15.24" y="-7.62" length="short"/>
<pin name="D1" x="-15.24" y="-5.08" length="short"/>
<pin name="D0" x="-15.24" y="-2.54" length="short"/>
<pin name="DGND" x="-15.24" y="12.7" length="short"/>
<pin name="DVDD" x="15.24" y="20.32" length="short" rot="R180"/>
<pin name="W_CLK" x="-15.24" y="-25.4" length="short"/>
<pin name="FQ_UD" x="-15.24" y="-22.86" length="short"/>
<pin name="CLKIN" x="-15.24" y="15.24" length="short"/>
<pin name="AGND" x="-15.24" y="10.16" length="short"/>
<pin name="AVDD" x="-15.24" y="20.32" length="short"/>
<pin name="RSET" x="15.24" y="-7.62" length="short" rot="R180"/>
<pin name="QOUTB" x="15.24" y="-17.78" length="short" rot="R180"/>
<pin name="QOUT" x="15.24" y="7.62" length="short" rot="R180"/>
<pin name="VINN" x="15.24" y="10.16" length="short" rot="R180"/>
<pin name="VINP" x="15.24" y="12.7" length="short" rot="R180"/>
<pin name="DACBL" x="15.24" y="5.08" length="short" rot="R180"/>
<pin name="AVDD@1" x="-15.24" y="17.78" length="short"/>
<pin name="AGND@1" x="-15.24" y="7.62" length="short"/>
<pin name="IOUTB" x="15.24" y="15.24" length="short" rot="R180"/>
<pin name="IOUT" x="15.24" y="2.54" length="short" rot="R180"/>
<pin name="RESET" x="15.24" y="-12.7" length="short" rot="R180"/>
<pin name="DVDD@1" x="15.24" y="17.78" length="short" rot="R180"/>
<pin name="DGND@1" x="-15.24" y="5.08" length="short"/>
<pin name="D7" x="-15.24" y="-20.32" length="short"/>
<pin name="D6" x="-15.24" y="-17.78" length="short"/>
<pin name="D5" x="-15.24" y="-15.24" length="short"/>
<pin name="D4" x="-15.24" y="-12.7" length="short"/>
<wire x1="-12.7" y1="22.86" x2="12.7" y2="22.86" width="0.254" layer="94"/>
<wire x1="12.7" y1="22.86" x2="12.7" y2="-27.94" width="0.254" layer="94"/>
<wire x1="12.7" y1="-27.94" x2="-12.7" y2="-27.94" width="0.254" layer="94"/>
<wire x1="-12.7" y1="-27.94" x2="-12.7" y2="22.86" width="0.254" layer="94"/>
<text x="-12.7" y="24.13" size="1.778" layer="95">&gt;NAME</text>
<text x="-12.7" y="-30.48" size="1.778" layer="96">&gt;VALUE</text>
</symbol>
<symbol name="78XX">
<wire x1="-5.08" y1="-5.08" x2="5.08" y2="-5.08" width="0.4064" layer="94"/>
<wire x1="5.08" y1="-5.08" x2="5.08" y2="2.54" width="0.4064" layer="94"/>
<wire x1="5.08" y1="2.54" x2="-5.08" y2="2.54" width="0.4064" layer="94"/>
<wire x1="-5.08" y1="2.54" x2="-5.08" y2="-5.08" width="0.4064" layer="94"/>
<text x="2.54" y="-7.62" size="1.778" layer="95">&gt;NAME</text>
<text x="2.54" y="-10.16" size="1.778" layer="96">&gt;VALUE</text>
<text x="-2.032" y="-4.318" size="1.524" layer="95">GND</text>
<text x="-4.445" y="-0.635" size="1.524" layer="95">IN</text>
<text x="0.635" y="-0.635" size="1.524" layer="95">OUT</text>
<pin name="IN" x="-7.62" y="0" visible="off" length="short" direction="in"/>
<pin name="GND" x="0" y="-7.62" visible="off" length="short" direction="in" rot="R90"/>
<pin name="OUT" x="7.62" y="0" visible="off" length="short" direction="pas" rot="R180"/>
</symbol>
<symbol name="CAP">
<wire x1="0" y1="2.54" x2="0" y2="2.032" width="0.1524" layer="94"/>
<wire x1="0" y1="0" x2="0" y2="0.508" width="0.1524" layer="94"/>
<text x="1.524" y="2.921" size="1.778" layer="95">&gt;NAME</text>
<text x="1.524" y="-2.159" size="1.778" layer="96">&gt;VALUE</text>
<rectangle x1="-2.032" y1="0.508" x2="2.032" y2="0.889" layer="94"/>
<rectangle x1="-2.032" y1="1.651" x2="2.032" y2="2.032" layer="94"/>
<pin name="1" x="0" y="5.08" visible="off" length="short" direction="pas" swaplevel="1" rot="R270"/>
<pin name="2" x="0" y="-2.54" visible="off" length="short" direction="pas" swaplevel="1" rot="R90"/>
</symbol>
<symbol name="CAP-POL">
<wire x1="0" y1="-1.524" x2="1.905" y2="-2.3622" width="0.381" layer="94" curve="-50"/>
<wire x1="-1.905" y1="-2.3584" x2="0" y2="-1.524" width="0.381" layer="94" curve="-50"/>
<text x="1.016" y="0.635" size="1.778" layer="95">&gt;NAME</text>
<text x="1.016" y="-4.191" size="1.778" layer="96">&gt;VALUE</text>
<rectangle x1="-1.999" y1="1.176" x2="-1.11" y2="1.303" layer="94"/>
<rectangle x1="-1.618" y1="0.795" x2="-1.491" y2="1.684" layer="94"/>
<pin name="+" x="0" y="2.54" visible="off" length="short" direction="pas" swaplevel="1" rot="R270"/>
<pin name="-" x="0" y="-5.08" visible="off" length="short" direction="pas" swaplevel="1" rot="R90"/>
<wire x1="0" y1="0" x2="0" y2="-0.508" width="0.1524" layer="94"/>
<rectangle x1="-2.032" y1="-0.889" x2="2.032" y2="-0.508" layer="94"/>
</symbol>
<symbol name="RESISTOR">
<wire x1="-2.54" y1="0" x2="-2.159" y2="1.016" width="0.1524" layer="94"/>
<wire x1="-2.159" y1="1.016" x2="-1.524" y2="-1.016" width="0.1524" layer="94"/>
<wire x1="-1.524" y1="-1.016" x2="-0.889" y2="1.016" width="0.1524" layer="94"/>
<wire x1="-0.889" y1="1.016" x2="-0.254" y2="-1.016" width="0.1524" layer="94"/>
<wire x1="-0.254" y1="-1.016" x2="0.381" y2="1.016" width="0.1524" layer="94"/>
<wire x1="0.381" y1="1.016" x2="1.016" y2="-1.016" width="0.1524" layer="94"/>
<wire x1="1.016" y1="-1.016" x2="1.651" y2="1.016" width="0.1524" layer="94"/>
<wire x1="1.651" y1="1.016" x2="2.286" y2="-1.016" width="0.1524" layer="94"/>
<wire x1="2.286" y1="-1.016" x2="2.54" y2="0" width="0.1524" layer="94"/>
<text x="-3.81" y="1.4986" size="1.778" layer="95">&gt;NAME</text>
<text x="-3.81" y="-3.302" size="1.778" layer="96">&gt;VALUE</text>
<pin name="2" x="5.08" y="0" visible="off" length="short" direction="pas" swaplevel="1" rot="R180"/>
<pin name="1" x="-5.08" y="0" visible="off" length="short" direction="pas" swaplevel="1"/>
</symbol>
<symbol name="GND">
<wire x1="-1.778" y1="0" x2="1.778" y2="0" width="0.254" layer="94"/>
<pin name="GND" x="0" y="2.54" visible="off" length="short" direction="sup" rot="R270"/>
<wire x1="-1.778" y1="0" x2="0" y2="-1.778" width="0.254" layer="94"/>
<wire x1="0" y1="-1.778" x2="1.778" y2="0" width="0.254" layer="94"/>
</symbol>
<symbol name="COAX">
<text x="-5.08" y="3.302" size="1.778" layer="95">&gt;NAME</text>
<pin name="1" x="2.54" y="0" visible="off" length="short" direction="pas" rot="R180"/>
<wire x1="0.254" y1="-0.762" x2="0.254" y2="0.762" width="0.254" layer="94" curve="-306.869898"/>
<circle x="-1.27" y="0" radius="0.762" width="0.254" layer="94"/>
<wire x1="-0.508" y1="0" x2="0" y2="0" width="0.1524" layer="94"/>
</symbol>
<symbol name="SCHOTTKY">
<wire x1="-1.27" y1="-1.27" x2="1.27" y2="0" width="0.254" layer="94"/>
<wire x1="1.27" y1="0" x2="-1.27" y2="1.27" width="0.254" layer="94"/>
<wire x1="1.905" y1="1.27" x2="1.27" y2="1.27" width="0.254" layer="94"/>
<wire x1="1.27" y1="1.27" x2="1.27" y2="0" width="0.254" layer="94"/>
<wire x1="-1.27" y1="1.27" x2="-1.27" y2="-1.27" width="0.254" layer="94"/>
<wire x1="1.27" y1="0" x2="1.27" y2="-1.27" width="0.254" layer="94"/>
<wire x1="1.905" y1="1.27" x2="1.905" y2="1.016" width="0.254" layer="94"/>
<wire x1="1.27" y1="-1.27" x2="0.635" y2="-1.27" width="0.254" layer="94"/>
<wire x1="0.635" y1="-1.016" x2="0.635" y2="-1.27" width="0.254" layer="94"/>
<text x="-2.286" y="1.905" size="1.778" layer="95">&gt;NAME</text>
<text x="-2.286" y="-3.429" size="1.778" layer="96">&gt;VALUE</text>
<pin name="A" x="-2.54" y="0" visible="off" length="short" direction="pas"/>
<pin name="C" x="2.54" y="0" visible="off" length="short" direction="pas" rot="R180"/>
</symbol>
<symbol name="CONN-12PIN">
<wire x1="1.27" y1="-15.24" x2="-3.81" y2="-15.24" width="0.4064" layer="94"/>
<wire x1="-1.27" y1="7.62" x2="0" y2="7.62" width="0.6096" layer="94"/>
<wire x1="-1.27" y1="5.08" x2="0" y2="5.08" width="0.6096" layer="94"/>
<wire x1="-1.27" y1="2.54" x2="0" y2="2.54" width="0.6096" layer="94"/>
<wire x1="-1.27" y1="12.7" x2="0" y2="12.7" width="0.6096" layer="94"/>
<wire x1="-1.27" y1="10.16" x2="0" y2="10.16" width="0.6096" layer="94"/>
<wire x1="-1.27" y1="15.24" x2="0" y2="15.24" width="0.6096" layer="94"/>
<wire x1="-3.81" y1="17.78" x2="-3.81" y2="-15.24" width="0.4064" layer="94"/>
<wire x1="1.27" y1="-15.24" x2="1.27" y2="17.78" width="0.4064" layer="94"/>
<wire x1="-3.81" y1="17.78" x2="1.27" y2="17.78" width="0.4064" layer="94"/>
<text x="-3.81" y="-17.78" size="1.778" layer="96">&gt;VALUE</text>
<text x="-3.81" y="18.542" size="1.778" layer="95">&gt;NAME</text>
<pin name="1" x="5.08" y="15.24" visible="pad" length="middle" direction="pas" swaplevel="1" rot="R180"/>
<pin name="2" x="5.08" y="12.7" visible="pad" length="middle" direction="pas" swaplevel="1" rot="R180"/>
<pin name="3" x="5.08" y="10.16" visible="pad" length="middle" direction="pas" swaplevel="1" rot="R180"/>
<pin name="4" x="5.08" y="7.62" visible="pad" length="middle" direction="pas" swaplevel="1" rot="R180"/>
<pin name="5" x="5.08" y="5.08" visible="pad" length="middle" direction="pas" swaplevel="1" rot="R180"/>
<pin name="6" x="5.08" y="2.54" visible="pad" length="middle" direction="pas" swaplevel="1" rot="R180"/>
<wire x1="-1.27" y1="0" x2="0" y2="0" width="0.6096" layer="94"/>
<wire x1="-1.27" y1="-2.54" x2="0" y2="-2.54" width="0.6096" layer="94"/>
<wire x1="-1.27" y1="-5.08" x2="0" y2="-5.08" width="0.6096" layer="94"/>
<wire x1="-1.27" y1="-7.62" x2="0" y2="-7.62" width="0.6096" layer="94"/>
<wire x1="-1.27" y1="-10.16" x2="0" y2="-10.16" width="0.6096" layer="94"/>
<wire x1="-1.27" y1="-12.7" x2="0" y2="-12.7" width="0.6096" layer="94"/>
<pin name="7" x="5.08" y="0" visible="pad" length="middle" direction="pas" swaplevel="1" rot="R180"/>
<pin name="8" x="5.08" y="-2.54" visible="pad" length="middle" direction="pas" swaplevel="1" rot="R180"/>
<pin name="9" x="5.08" y="-5.08" visible="pad" length="middle" direction="pas" swaplevel="1" rot="R180"/>
<pin name="10" x="5.08" y="-7.62" visible="pad" length="middle" direction="pas" swaplevel="1" rot="R180"/>
<pin name="11" x="5.08" y="-10.16" visible="pad" length="middle" direction="pas" swaplevel="1" rot="R180"/>
<pin name="12" x="5.08" y="-12.7" visible="pad" length="middle" direction="pas" swaplevel="1" rot="R180"/>
</symbol>
<symbol name="7WZU04">
<wire x1="-5.08" y1="5.08" x2="-5.08" y2="-5.08" width="0.254" layer="94"/>
<wire x1="-5.08" y1="-5.08" x2="5.08" y2="0" width="0.254" layer="94"/>
<wire x1="5.08" y1="0" x2="-5.08" y2="5.08" width="0.254" layer="94"/>
<circle x="6.35" y="0" radius="1.27" width="0.254" layer="94"/>
<pin name="IN" x="-10.16" y="0" visible="pad" length="middle" direction="in"/>
<pin name="OUT" x="12.7" y="0" visible="pad" length="middle" direction="out" rot="R180"/>
</symbol>
<symbol name="POWER">
<pin name="VCC" x="-5.08" y="0" length="middle"/>
<pin name="GND" x="-5.08" y="-5.08" length="middle"/>
</symbol>
<symbol name="COAX-GND">
<pin name="GND" x="-5.08" y="0" length="middle" direction="pwr"/>
</symbol>
<symbol name="INDUCTOR">
<wire x1="-2.54" y1="0" x2="-1.27" y2="1.27" width="0.2032" layer="94" curve="-90"/>
<wire x1="-1.27" y1="1.27" x2="0" y2="0" width="0.2032" layer="94" curve="-90"/>
<wire x1="0" y1="0" x2="1.27" y2="1.27" width="0.2032" layer="94" curve="-90"/>
<wire x1="1.27" y1="1.27" x2="2.54" y2="0" width="0.2032" layer="94" curve="-90"/>
<wire x1="-5.08" y1="0" x2="-3.81" y2="1.27" width="0.2032" layer="94" curve="-90"/>
<wire x1="-3.81" y1="1.27" x2="-2.54" y2="0" width="0.2032" layer="94" curve="-90"/>
<text x="-5.08" y="2.54" size="1.778" layer="95">&gt;NAME</text>
<text x="-5.08" y="-2.54" size="1.778" layer="96">&gt;VALUE</text>
<pin name="P$1" x="-7.62" y="0" visible="off" length="short" direction="pas"/>
<pin name="P$2" x="5.08" y="0" visible="off" length="short" direction="pas" rot="R180"/>
</symbol>
<symbol name="XTALFILTER">
<wire x1="-5.08" y1="-5.08" x2="5.08" y2="-5.08" width="0.4064" layer="94"/>
<wire x1="5.08" y1="-5.08" x2="5.08" y2="2.54" width="0.4064" layer="94"/>
<wire x1="5.08" y1="2.54" x2="-5.08" y2="2.54" width="0.4064" layer="94"/>
<wire x1="-5.08" y1="2.54" x2="-5.08" y2="-5.08" width="0.4064" layer="94"/>
<text x="2.54" y="-7.62" size="1.778" layer="95">&gt;NAME</text>
<text x="2.54" y="-10.16" size="1.778" layer="96">&gt;VALUE</text>
<text x="-2.032" y="-4.318" size="1.524" layer="95">GND</text>
<text x="-4.445" y="-0.635" size="1.524" layer="95">IN</text>
<text x="0.635" y="-0.635" size="1.524" layer="95">OUT</text>
<pin name="IN" x="-7.62" y="0" visible="off" length="short" direction="in"/>
<pin name="GND" x="0" y="-7.62" visible="off" length="short" direction="in" rot="R90"/>
<pin name="OUT" x="7.62" y="0" visible="off" length="short" direction="pas" rot="R180"/>
</symbol>
</symbols>
<devicesets>
<deviceset name="AD9850" prefix="U">
<gates>
<gate name="G$1" symbol="AD9850" x="0" y="0"/>
</gates>
<devices>
<device name="" package="SSOP28">
<connects>
<connect gate="G$1" pin="AGND" pad="10"/>
<connect gate="G$1" pin="AGND@1" pad="19"/>
<connect gate="G$1" pin="AVDD" pad="11"/>
<connect gate="G$1" pin="AVDD@1" pad="18"/>
<connect gate="G$1" pin="CLKIN" pad="9"/>
<connect gate="G$1" pin="D0" pad="4"/>
<connect gate="G$1" pin="D1" pad="3"/>
<connect gate="G$1" pin="D2" pad="2"/>
<connect gate="G$1" pin="D3" pad="1"/>
<connect gate="G$1" pin="D4" pad="28"/>
<connect gate="G$1" pin="D5" pad="27"/>
<connect gate="G$1" pin="D6" pad="26"/>
<connect gate="G$1" pin="D7" pad="25"/>
<connect gate="G$1" pin="DACBL" pad="17"/>
<connect gate="G$1" pin="DGND" pad="5"/>
<connect gate="G$1" pin="DGND@1" pad="24"/>
<connect gate="G$1" pin="DVDD" pad="6"/>
<connect gate="G$1" pin="DVDD@1" pad="23"/>
<connect gate="G$1" pin="FQ_UD" pad="8"/>
<connect gate="G$1" pin="IOUT" pad="21"/>
<connect gate="G$1" pin="IOUTB" pad="20"/>
<connect gate="G$1" pin="QOUT" pad="14"/>
<connect gate="G$1" pin="QOUTB" pad="13"/>
<connect gate="G$1" pin="RESET" pad="22"/>
<connect gate="G$1" pin="RSET" pad="12"/>
<connect gate="G$1" pin="VINN" pad="15"/>
<connect gate="G$1" pin="VINP" pad="16"/>
<connect gate="G$1" pin="W_CLK" pad="7"/>
</connects>
<technologies>
<technology name=""/>
</technologies>
</device>
</devices>
</deviceset>
<deviceset name="78MXXL" prefix="U" uservalue="yes">
<description>&lt;b&gt;VOLTAGE REGULATOR&lt;/b&gt;</description>
<gates>
<gate name="A" symbol="78XX" x="0" y="0"/>
</gates>
<devices>
<device name="TO-220" package="78MXXL">
<connects>
<connect gate="A" pin="GND" pad="GND"/>
<connect gate="A" pin="IN" pad="IN"/>
<connect gate="A" pin="OUT" pad="OUT"/>
</connects>
<technologies>
<technology name=""/>
</technologies>
</device>
<device name="DPAK" package="TO252">
<connects>
<connect gate="A" pin="GND" pad="3"/>
<connect gate="A" pin="IN" pad="1"/>
<connect gate="A" pin="OUT" pad="2"/>
</connects>
<technologies>
<technology name=""/>
</technologies>
</device>
<device name="SOT-89" package="SOT89">
<connects>
<connect gate="A" pin="GND" pad="2 4"/>
<connect gate="A" pin="IN" pad="3"/>
<connect gate="A" pin="OUT" pad="1"/>
</connects>
<technologies>
<technology name=""/>
</technologies>
</device>
</devices>
</deviceset>
<deviceset name="CAP" prefix="C" uservalue="yes">
<description>&lt;b&gt;Capacitor&lt;/b&gt;
Standard 0603 ceramic capacitor, and 0.1" leaded capacitor.</description>
<gates>
<gate name="G$1" symbol="CAP" x="0" y="0"/>
</gates>
<devices>
<device name="0805" package="0805">
<connects>
<connect gate="G$1" pin="1" pad="1"/>
<connect gate="G$1" pin="2" pad="2"/>
</connects>
<technologies>
<technology name=""/>
</technologies>
</device>
<device name="1206" package="1206">
<connects>
<connect gate="G$1" pin="1" pad="1"/>
<connect gate="G$1" pin="2" pad="2"/>
</connects>
<technologies>
<technology name=""/>
</technologies>
</device>
</devices>
</deviceset>
<deviceset name="CAP-POL" prefix="C" uservalue="yes">
<gates>
<gate name="G$1" symbol="CAP-POL" x="0" y="0"/>
</gates>
<devices>
<device name="1206" package="EIA3216">
<connects>
<connect gate="G$1" pin="+" pad="A"/>
<connect gate="G$1" pin="-" pad="C"/>
</connects>
<technologies>
<technology name=""/>
</technologies>
</device>
</devices>
</deviceset>
<deviceset name="RESISTOR" prefix="R" uservalue="yes">
<description>&lt;b&gt;Resistor&lt;/b&gt;
Basic schematic elements and footprints for 0603, 1206, and PTH resistors.</description>
<gates>
<gate name="G$1" symbol="RESISTOR" x="0" y="0"/>
</gates>
<devices>
<device name="1206" package="1206">
<connects>
<connect gate="G$1" pin="1" pad="1"/>
<connect gate="G$1" pin="2" pad="2"/>
</connects>
<technologies>
<technology name=""/>
</technologies>
</device>
<device name="0805" package="0805">
<connects>
<connect gate="G$1" pin="1" pad="1"/>
<connect gate="G$1" pin="2" pad="2"/>
</connects>
<technologies>
<technology name=""/>
</technologies>
</device>
</devices>
</deviceset>
<deviceset name="GND" prefix="GND">
<description>&lt;b&gt;SUPPLY SYMBOL&lt;/b&gt;</description>
<gates>
<gate name="1" symbol="GND" x="0" y="0"/>
</gates>
<devices>
<device name="">
<technologies>
<technology name=""/>
</technologies>
</device>
</devices>
</deviceset>
<deviceset name="COAX" prefix="J">
<gates>
<gate name="G$1" symbol="COAX" x="0" y="0"/>
<gate name="G$2" symbol="COAX-GND" x="5.08" y="-12.7" addlevel="request"/>
</gates>
<devices>
<device name="" package="SLIM_COAX_PAD">
<connects>
<connect gate="G$1" pin="1" pad="P$1"/>
<connect gate="G$2" pin="GND" pad="P$2"/>
</connects>
<technologies>
<technology name=""/>
</technologies>
</device>
</devices>
</deviceset>
<deviceset name="SCHOTTKY-DIODE" prefix="D" uservalue="yes">
<gates>
<gate name="G$1" symbol="SCHOTTKY" x="0" y="0"/>
</gates>
<devices>
<device name="-SOD323" package="SOD323">
<connects>
<connect gate="G$1" pin="A" pad="A"/>
<connect gate="G$1" pin="C" pad="C"/>
</connects>
<technologies>
<technology name=""/>
</technologies>
</device>
</devices>
</deviceset>
<deviceset name="CONN-12PIN" prefix="P">
<gates>
<gate name="G$1" symbol="CONN-12PIN" x="0" y="0"/>
</gates>
<devices>
<device name="" package="CONN-12PIN">
<connects>
<connect gate="G$1" pin="1" pad="1"/>
<connect gate="G$1" pin="10" pad="10"/>
<connect gate="G$1" pin="11" pad="11"/>
<connect gate="G$1" pin="12" pad="12"/>
<connect gate="G$1" pin="2" pad="2"/>
<connect gate="G$1" pin="3" pad="3"/>
<connect gate="G$1" pin="4" pad="4"/>
<connect gate="G$1" pin="5" pad="5"/>
<connect gate="G$1" pin="6" pad="6"/>
<connect gate="G$1" pin="7" pad="7"/>
<connect gate="G$1" pin="8" pad="8"/>
<connect gate="G$1" pin="9" pad="9"/>
</connects>
<technologies>
<technology name=""/>
</technologies>
</device>
</devices>
</deviceset>
<deviceset name="7SZ04">
<gates>
<gate name="G$1" symbol="7WZU04" x="0" y="0"/>
<gate name="G$2" symbol="POWER" x="-2.54" y="-12.7"/>
</gates>
<devices>
<device name="SC-74" package="SC70-5L">
<connects>
<connect gate="G$1" pin="IN" pad="2"/>
<connect gate="G$1" pin="OUT" pad="4"/>
<connect gate="G$2" pin="GND" pad="3"/>
<connect gate="G$2" pin="VCC" pad="5"/>
</connects>
<technologies>
<technology name=""/>
</technologies>
</device>
<device name="SOT-23" package="SOT23-5L">
<connects>
<connect gate="G$1" pin="IN" pad="2"/>
<connect gate="G$1" pin="OUT" pad="4"/>
<connect gate="G$2" pin="GND" pad="3"/>
<connect gate="G$2" pin="VCC" pad="5"/>
</connects>
<technologies>
<technology name=""/>
</technologies>
</device>
</devices>
</deviceset>
<deviceset name="INDUCTOR" prefix="L" uservalue="yes">
<gates>
<gate name="G$1" symbol="INDUCTOR" x="0" y="0"/>
</gates>
<devices>
<device name="0805" package="0805-IND">
<connects>
<connect gate="G$1" pin="P$1" pad="1"/>
<connect gate="G$1" pin="P$2" pad="2"/>
</connects>
<technologies>
<technology name=""/>
</technologies>
</device>
</devices>
</deviceset>
<deviceset name="XTALFILTER" prefix="XF" uservalue="yes">
<gates>
<gate name="G$1" symbol="XTALFILTER" x="0" y="0"/>
</gates>
<devices>
<device name="" package="XTALFILTER">
<connects>
<connect gate="G$1" pin="GND" pad="3"/>
<connect gate="G$1" pin="IN" pad="2"/>
<connect gate="G$1" pin="OUT" pad="1"/>
</connects>
<technologies>
<technology name=""/>
</technologies>
</device>
</devices>
</deviceset>
</devicesets>
</library>
</libraries>
<attributes>
</attributes>
<variantdefs>
</variantdefs>
<classes>
<class number="0" name="default" width="0" drill="0">
</class>
</classes>
<parts>
<part name="FRAME1" library="frames" deviceset="LETTER_L" device=""/>
<part name="U2" library="SLIM" deviceset="AD9850" device=""/>
<part name="U1" library="SLIM" deviceset="78MXXL" device="DPAK"/>
<part name="C1" library="SLIM" deviceset="CAP" device="0805" value="0.01uF"/>
<part name="C2" library="SLIM" deviceset="CAP" device="0805" value="0.1uF"/>
<part name="C3" library="SLIM" deviceset="CAP-POL" device="1206" value="10uF/16V"/>
<part name="C4" library="SLIM" deviceset="CAP" device="0805" value="0.1uF"/>
<part name="C5" library="SLIM" deviceset="CAP-POL" device="1206" value="10uF/16V"/>
<part name="C6" library="SLIM" deviceset="CAP" device="0805" value="0.01uF"/>
<part name="C7" library="SLIM" deviceset="CAP" device="0805" value="0.01uF"/>
<part name="C8" library="SLIM" deviceset="CAP" device="0805" value="0.001uF"/>
<part name="C9" library="SLIM" deviceset="CAP" device="0805" value="0.001uF"/>
<part name="C10" library="SLIM" deviceset="CAP" device="0805" value="0.01uF"/>
<part name="C11" library="SLIM" deviceset="CAP" device="0805" value="0.001uF"/>
<part name="C12" library="SLIM" deviceset="CAP" device="0805" value="0.001uF"/>
<part name="C13" library="SLIM" deviceset="CAP" device="0805" value="0.01uF"/>
<part name="C14" library="SLIM" deviceset="CAP" device="0805" value="0.01uF"/>
<part name="C15" library="SLIM" deviceset="CAP" device="0805" value="0.01uF"/>
<part name="C16" library="SLIM" deviceset="CAP" device="0805" value="100pF"/>
<part name="C17" library="SLIM" deviceset="CAP" device="0805" value="100pF"/>
<part name="C18" library="SLIM" deviceset="CAP" device="0805" value="100pF"/>
<part name="C19" library="SLIM" deviceset="CAP" device="0805" value="100pF"/>
<part name="C20" library="SLIM" deviceset="CAP" device="0805" value="100pF"/>
<part name="C21" library="SLIM" deviceset="CAP" device="0805" value="100pF"/>
<part name="C22" library="SLIM" deviceset="CAP" device="0805" value="100pF"/>
<part name="C23" library="SLIM" deviceset="CAP" device="0805" value="100pF"/>
<part name="C24" library="SLIM" deviceset="CAP" device="0805" value="100pF"/>
<part name="C25" library="SLIM" deviceset="CAP" device="0805" value="100pF"/>
<part name="C26" library="SLIM" deviceset="CAP" device="0805"/>
<part name="C28" library="SLIM" deviceset="CAP" device="0805" value="33pF"/>
<part name="C29" library="SLIM" deviceset="CAP" device="0805" value="33pF"/>
<part name="C30" library="SLIM" deviceset="CAP" device="0805" value="0.1uF"/>
<part name="C31" library="SLIM" deviceset="CAP" device="0805" value="33pF"/>
<part name="C33" library="SLIM" deviceset="CAP" device="0805" value="0.1uF"/>
<part name="C34" library="SLIM" deviceset="CAP" device="0805" value="33pF"/>
<part name="C35" library="SLIM" deviceset="CAP" device="0805" value="33pF"/>
<part name="R13" library="SLIM" deviceset="RESISTOR" device="0805" value="10"/>
<part name="R2" library="SLIM" deviceset="RESISTOR" device="0805" value="10k"/>
<part name="R1" library="SLIM" deviceset="RESISTOR" device="0805" value="10k"/>
<part name="R3" library="SLIM" deviceset="RESISTOR" device="0805" value="49.9 1%"/>
<part name="R4" library="SLIM" deviceset="RESISTOR" device="0805" value="49.9 1%"/>
<part name="R5" library="SLIM" deviceset="RESISTOR" device="0805" value="49.9"/>
<part name="R6" library="SLIM" deviceset="RESISTOR" device="0805" value="3.9k"/>
<part name="R7" library="SLIM" deviceset="RESISTOR" device="0805" value="10k"/>
<part name="R8" library="SLIM" deviceset="RESISTOR" device="0805" value="10"/>
<part name="R9" library="SLIM" deviceset="RESISTOR" device="0805" value="3k"/>
<part name="R10" library="SLIM" deviceset="RESISTOR" device="0805" value="100k"/>
<part name="R11" library="SLIM" deviceset="RESISTOR" device="0805" value="10k"/>
<part name="R12" library="SLIM" deviceset="RESISTOR" device="0805" value="10k"/>
<part name="R14" library="SLIM" deviceset="RESISTOR" device="0805" value="33"/>
<part name="GND1" library="SLIM" deviceset="GND" device=""/>
<part name="GND2" library="SLIM" deviceset="GND" device=""/>
<part name="GND3" library="SLIM" deviceset="GND" device=""/>
<part name="GND4" library="SLIM" deviceset="GND" device=""/>
<part name="GND5" library="SLIM" deviceset="GND" device=""/>
<part name="GND6" library="SLIM" deviceset="GND" device=""/>
<part name="GND7" library="SLIM" deviceset="GND" device=""/>
<part name="GND8" library="SLIM" deviceset="GND" device=""/>
<part name="GND9" library="SLIM" deviceset="GND" device=""/>
<part name="GND10" library="SLIM" deviceset="GND" device=""/>
<part name="GND11" library="SLIM" deviceset="GND" device=""/>
<part name="GND12" library="SLIM" deviceset="GND" device=""/>
<part name="GND13" library="SLIM" deviceset="GND" device=""/>
<part name="GND14" library="SLIM" deviceset="GND" device=""/>
<part name="GND15" library="SLIM" deviceset="GND" device=""/>
<part name="J1" library="SLIM" deviceset="COAX" device=""/>
<part name="GND16" library="SLIM" deviceset="GND" device=""/>
<part name="GND17" library="SLIM" deviceset="GND" device=""/>
<part name="GND18" library="SLIM" deviceset="GND" device=""/>
<part name="GND19" library="SLIM" deviceset="GND" device=""/>
<part name="GND20" library="SLIM" deviceset="GND" device=""/>
<part name="GND21" library="SLIM" deviceset="GND" device=""/>
<part name="GND22" library="SLIM" deviceset="GND" device=""/>
<part name="GND23" library="SLIM" deviceset="GND" device=""/>
<part name="GND24" library="SLIM" deviceset="GND" device=""/>
<part name="GND25" library="SLIM" deviceset="GND" device=""/>
<part name="GND26" library="SLIM" deviceset="GND" device=""/>
<part name="GND27" library="SLIM" deviceset="GND" device=""/>
<part name="D7" library="SLIM" deviceset="SCHOTTKY-DIODE" device="-SOD323"/>
<part name="D8" library="SLIM" deviceset="SCHOTTKY-DIODE" device="-SOD323"/>
<part name="GND28" library="SLIM" deviceset="GND" device=""/>
<part name="P1" library="SLIM" deviceset="CONN-12PIN" device=""/>
<part name="GND29" library="SLIM" deviceset="GND" device=""/>
<part name="GND30" library="SLIM" deviceset="GND" device=""/>
<part name="U3" library="SLIM" deviceset="7SZ04" device="SOT-23"/>
<part name="GND31" library="SLIM" deviceset="GND" device=""/>
<part name="J2" library="SLIM" deviceset="COAX" device=""/>
<part name="GND32" library="SLIM" deviceset="GND" device=""/>
<part name="L1" library="SLIM" deviceset="INDUCTOR" device="0805" value="5.6uH"/>
<part name="L2" library="SLIM" deviceset="INDUCTOR" device="0805" value="5.6uH"/>
<part name="L3" library="SLIM" deviceset="INDUCTOR" device="0805" value="0.33uH"/>
<part name="GND33" library="SLIM" deviceset="GND" device=""/>
<part name="GND34" library="SLIM" deviceset="GND" device=""/>
<part name="GND35" library="SLIM" deviceset="GND" device=""/>
<part name="GND36" library="SLIM" deviceset="GND" device=""/>
<part name="XF1" library="SLIM" deviceset="XTALFILTER" device="" value="ECS-10.7-15A"/>
<part name="GND37" library="SLIM" deviceset="GND" device=""/>
<part name="GND38" library="SLIM" deviceset="GND" device=""/>
<part name="GND39" library="SLIM" deviceset="GND" device=""/>
<part name="GND40" library="SLIM" deviceset="GND" device=""/>
<part name="GND41" library="SLIM" deviceset="GND" device=""/>
<part name="GND42" library="SLIM" deviceset="GND" device=""/>
<part name="J3" library="SLIM" deviceset="COAX" device=""/>
<part name="J4" library="SLIM" deviceset="COAX" device=""/>
<part name="GND44" library="SLIM" deviceset="GND" device=""/>
</parts>
<sheets>
<sheet>
<plain>
<text x="111.76" y="35.56" size="1.778" layer="94">All Diodes MBRX0540</text>
</plain>
<instances>
<instance part="FRAME1" gate="G$1" x="0" y="0"/>
<instance part="FRAME1" gate="G$2" x="147.32" y="0"/>
<instance part="U2" gate="G$1" x="134.62" y="111.76"/>
<instance part="U1" gate="A" x="76.2" y="175.26"/>
<instance part="C1" gate="G$1" x="25.4" y="170.18"/>
<instance part="C2" gate="G$1" x="43.18" y="170.18"/>
<instance part="C3" gate="G$1" x="55.88" y="172.72"/>
<instance part="C4" gate="G$1" x="96.52" y="170.18"/>
<instance part="C5" gate="G$1" x="109.22" y="172.72"/>
<instance part="C6" gate="G$1" x="96.52" y="152.4"/>
<instance part="C7" gate="G$1" x="127" y="170.18"/>
<instance part="C8" gate="G$1" x="109.22" y="152.4"/>
<instance part="C9" gate="G$1" x="139.7" y="170.18"/>
<instance part="C10" gate="G$1" x="152.4" y="170.18"/>
<instance part="C11" gate="G$1" x="165.1" y="170.18"/>
<instance part="C12" gate="G$1" x="172.72" y="152.4"/>
<instance part="C13" gate="G$1" x="160.02" y="152.4"/>
<instance part="C14" gate="G$1" x="175.26" y="132.08" smashed="yes" rot="R90">
<attribute name="NAME" x="171.704" y="137.541" size="1.778" layer="95"/>
<attribute name="VALUE" x="171.704" y="135.001" size="1.778" layer="96"/>
</instance>
<instance part="C15" gate="G$1" x="175.26" y="109.22"/>
<instance part="C16" gate="G$1" x="15.24" y="106.68" smashed="yes" rot="R180">
<attribute name="NAME" x="12.446" y="106.299" size="1.778" layer="95" rot="R180"/>
<attribute name="VALUE" x="13.716" y="102.489" size="1.778" layer="96" rot="R180"/>
</instance>
<instance part="C17" gate="G$1" x="30.48" y="104.14" smashed="yes" rot="R180">
<attribute name="NAME" x="27.686" y="103.759" size="1.778" layer="95" rot="R180"/>
<attribute name="VALUE" x="28.956" y="99.949" size="1.778" layer="96" rot="R180"/>
</instance>
<instance part="C18" gate="G$1" x="45.72" y="101.6" smashed="yes" rot="R180">
<attribute name="NAME" x="42.926" y="101.219" size="1.778" layer="95" rot="R180"/>
<attribute name="VALUE" x="44.196" y="97.409" size="1.778" layer="96" rot="R180"/>
</instance>
<instance part="C19" gate="G$1" x="60.96" y="99.06" smashed="yes" rot="R180">
<attribute name="NAME" x="58.166" y="98.679" size="1.778" layer="95" rot="R180"/>
<attribute name="VALUE" x="59.436" y="94.869" size="1.778" layer="96" rot="R180"/>
</instance>
<instance part="C20" gate="G$1" x="76.2" y="96.52" smashed="yes" rot="R180">
<attribute name="NAME" x="73.406" y="96.139" size="1.778" layer="95" rot="R180"/>
<attribute name="VALUE" x="74.676" y="92.329" size="1.778" layer="96" rot="R180"/>
</instance>
<instance part="C21" gate="G$1" x="91.44" y="93.98" smashed="yes" rot="R180">
<attribute name="NAME" x="88.646" y="93.599" size="1.778" layer="95" rot="R180"/>
<attribute name="VALUE" x="89.916" y="89.789" size="1.778" layer="96" rot="R180"/>
</instance>
<instance part="C22" gate="G$1" x="60.96" y="68.58" smashed="yes" rot="R180">
<attribute name="NAME" x="58.166" y="68.199" size="1.778" layer="95" rot="R180"/>
<attribute name="VALUE" x="59.436" y="64.389" size="1.778" layer="96" rot="R180"/>
</instance>
<instance part="C23" gate="G$1" x="76.2" y="66.04" smashed="yes" rot="R180">
<attribute name="NAME" x="73.406" y="65.659" size="1.778" layer="95" rot="R180"/>
<attribute name="VALUE" x="74.676" y="61.849" size="1.778" layer="96" rot="R180"/>
</instance>
<instance part="C24" gate="G$1" x="91.44" y="63.5" smashed="yes" rot="R180">
<attribute name="NAME" x="88.646" y="63.119" size="1.778" layer="95" rot="R180"/>
<attribute name="VALUE" x="89.916" y="59.309" size="1.778" layer="96" rot="R180"/>
</instance>
<instance part="C25" gate="G$1" x="109.22" y="55.88" smashed="yes" rot="R180">
<attribute name="NAME" x="106.426" y="55.499" size="1.778" layer="95" rot="R180"/>
<attribute name="VALUE" x="107.696" y="51.689" size="1.778" layer="96" rot="R180"/>
</instance>
<instance part="C26" gate="G$1" x="81.28" y="127" rot="R270"/>
<instance part="C28" gate="G$1" x="198.12" y="111.76" smashed="yes" rot="R180">
<attribute name="NAME" x="196.596" y="108.839" size="1.778" layer="95" rot="R180"/>
<attribute name="VALUE" x="196.596" y="106.299" size="1.778" layer="96" rot="R180"/>
</instance>
<instance part="C29" gate="G$1" x="223.52" y="111.76" smashed="yes" rot="R180">
<attribute name="NAME" x="221.996" y="108.839" size="1.778" layer="95" rot="R180"/>
<attribute name="VALUE" x="221.996" y="106.299" size="1.778" layer="96" rot="R180"/>
</instance>
<instance part="C30" gate="G$1" x="193.04" y="144.78" smashed="yes" rot="R180">
<attribute name="NAME" x="191.516" y="146.939" size="1.778" layer="95" rot="R180"/>
<attribute name="VALUE" x="191.516" y="141.859" size="1.778" layer="96" rot="R180"/>
</instance>
<instance part="C31" gate="G$1" x="203.2" y="137.16" smashed="yes" rot="R180">
<attribute name="NAME" x="201.676" y="139.319" size="1.778" layer="95" rot="R180"/>
<attribute name="VALUE" x="201.676" y="134.239" size="1.778" layer="96" rot="R180"/>
</instance>
<instance part="C33" gate="G$1" x="190.5" y="172.72" smashed="yes" rot="R180">
<attribute name="NAME" x="188.976" y="174.879" size="1.778" layer="95" rot="R180"/>
<attribute name="VALUE" x="188.976" y="169.799" size="1.778" layer="96" rot="R180"/>
</instance>
<instance part="C34" gate="G$1" x="228.6" y="137.16" smashed="yes" rot="R180">
<attribute name="NAME" x="227.076" y="139.319" size="1.778" layer="95" rot="R180"/>
<attribute name="VALUE" x="227.076" y="134.239" size="1.778" layer="96" rot="R180"/>
</instance>
<instance part="C35" gate="G$1" x="243.84" y="137.16" smashed="yes" rot="R180">
<attribute name="NAME" x="242.316" y="139.319" size="1.778" layer="95" rot="R180"/>
<attribute name="VALUE" x="242.316" y="134.239" size="1.778" layer="96" rot="R180"/>
</instance>
<instance part="R13" gate="G$1" x="35.56" y="175.26"/>
<instance part="R2" gate="G$1" x="88.9" y="119.38" rot="R90"/>
<instance part="R1" gate="G$1" x="88.9" y="137.16" rot="R90"/>
<instance part="R3" gate="G$1" x="96.52" y="127" smashed="yes" rot="R180">
<attribute name="NAME" x="97.79" y="130.5814" size="1.778" layer="95" rot="R180"/>
<attribute name="VALUE" x="102.87" y="125.222" size="1.778" layer="96" rot="R180"/>
</instance>
<instance part="R4" gate="G$1" x="167.64" y="127" smashed="yes" rot="R270">
<attribute name="NAME" x="170.434" y="127.2286" size="1.778" layer="95"/>
<attribute name="VALUE" x="170.434" y="124.206" size="1.778" layer="96"/>
</instance>
<instance part="R5" gate="G$1" x="167.64" y="106.68" smashed="yes" rot="R270">
<attribute name="NAME" x="166.37" y="110.2614" size="1.778" layer="95" rot="R180"/>
<attribute name="VALUE" x="166.37" y="107.442" size="1.778" layer="96" rot="R180"/>
</instance>
<instance part="R6" gate="G$1" x="160.02" y="96.52" smashed="yes" rot="R270">
<attribute name="NAME" x="162.052" y="96.2406" size="1.778" layer="95"/>
<attribute name="VALUE" x="162.052" y="93.472" size="1.778" layer="96"/>
</instance>
<instance part="R7" gate="G$1" x="139.7" y="60.96" smashed="yes" rot="R270">
<attribute name="NAME" x="141.732" y="62.4586" size="1.778" layer="95"/>
<attribute name="VALUE" x="141.732" y="59.436" size="1.778" layer="96"/>
</instance>
<instance part="R8" gate="G$1" x="177.8" y="175.26"/>
<instance part="R9" gate="G$1" x="203.2" y="149.86" smashed="yes" rot="R90">
<attribute name="NAME" x="205.486" y="149.8346" size="1.778" layer="95"/>
<attribute name="VALUE" x="205.486" y="147.32" size="1.778" layer="96"/>
</instance>
<instance part="R10" gate="G$1" x="215.9" y="142.24" rot="R180"/>
<instance part="R11" gate="G$1" x="33.02" y="78.74" rot="R270"/>
<instance part="R12" gate="G$1" x="38.1" y="60.96" rot="R270"/>
<instance part="R14" gate="G$1" x="236.22" y="157.48" smashed="yes" rot="R180">
<attribute name="NAME" x="237.49" y="161.0614" size="1.778" layer="95" rot="R180"/>
<attribute name="VALUE" x="237.49" y="155.702" size="1.778" layer="96" rot="R180"/>
</instance>
<instance part="GND1" gate="1" x="25.4" y="165.1"/>
<instance part="GND2" gate="1" x="43.18" y="165.1"/>
<instance part="GND3" gate="1" x="55.88" y="165.1"/>
<instance part="GND4" gate="1" x="76.2" y="165.1"/>
<instance part="GND5" gate="1" x="96.52" y="165.1"/>
<instance part="GND6" gate="1" x="109.22" y="165.1"/>
<instance part="GND7" gate="1" x="127" y="165.1"/>
<instance part="GND8" gate="1" x="139.7" y="165.1"/>
<instance part="GND9" gate="1" x="152.4" y="165.1"/>
<instance part="GND10" gate="1" x="165.1" y="165.1"/>
<instance part="GND11" gate="1" x="190.5" y="165.1"/>
<instance part="GND12" gate="1" x="96.52" y="147.32"/>
<instance part="GND13" gate="1" x="109.22" y="147.32"/>
<instance part="GND14" gate="1" x="160.02" y="147.32"/>
<instance part="GND15" gate="1" x="172.72" y="147.32"/>
<instance part="J1" gate="G$1" x="106.68" y="124.46" smashed="yes" rot="R90">
<attribute name="NAME" x="108.458" y="120.142" size="1.778" layer="95" rot="R180"/>
</instance>
<instance part="GND16" gate="1" x="114.3" y="116.84"/>
<instance part="GND17" gate="1" x="15.24" y="99.06"/>
<instance part="GND18" gate="1" x="30.48" y="96.52"/>
<instance part="GND19" gate="1" x="45.72" y="93.98"/>
<instance part="GND20" gate="1" x="60.96" y="91.44"/>
<instance part="GND21" gate="1" x="76.2" y="88.9"/>
<instance part="GND22" gate="1" x="91.44" y="86.36"/>
<instance part="GND23" gate="1" x="60.96" y="60.96"/>
<instance part="GND24" gate="1" x="76.2" y="58.42"/>
<instance part="GND25" gate="1" x="91.44" y="55.88" smashed="yes"/>
<instance part="GND26" gate="1" x="109.22" y="48.26"/>
<instance part="GND27" gate="1" x="88.9" y="111.76"/>
<instance part="D7" gate="G$1" x="127" y="50.8" rot="R180"/>
<instance part="D8" gate="G$1" x="127" y="43.18" rot="R180"/>
<instance part="GND28" gate="1" x="160.02" y="88.9"/>
<instance part="P1" gate="G$1" x="10.16" y="60.96"/>
<instance part="GND29" gate="1" x="20.32" y="76.2" rot="R90"/>
<instance part="GND30" gate="1" x="38.1" y="53.34"/>
<instance part="U3" gate="G$1" x="215.9" y="157.48"/>
<instance part="GND31" gate="1" x="167.64" y="99.06"/>
<instance part="J2" gate="G$1" x="180.34" y="104.14" rot="R180"/>
<instance part="GND32" gate="1" x="203.2" y="129.54"/>
<instance part="L1" gate="G$1" x="187.96" y="114.3"/>
<instance part="L2" gate="G$1" x="231.14" y="106.68" smashed="yes" rot="R270">
<attribute name="NAME" x="233.68" y="109.22" size="1.778" layer="95"/>
<attribute name="VALUE" x="233.68" y="106.68" size="1.778" layer="96"/>
</instance>
<instance part="L3" gate="G$1" x="243.84" y="149.86" smashed="yes" rot="R270">
<attribute name="NAME" x="241.3" y="152.4" size="1.778" layer="95" rot="R180"/>
<attribute name="VALUE" x="241.3" y="149.86" size="1.778" layer="96" rot="R180"/>
</instance>
<instance part="GND33" gate="1" x="228.6" y="129.54"/>
<instance part="GND34" gate="1" x="243.84" y="129.54"/>
<instance part="GND35" gate="1" x="76.2" y="127" rot="R270"/>
<instance part="GND36" gate="1" x="198.12" y="104.14"/>
<instance part="XF1" gate="G$1" x="210.82" y="114.3" smashed="yes">
<attribute name="NAME" x="205.74" y="106.68" size="1.778" layer="95"/>
<attribute name="VALUE" x="200.66" y="119.38" size="1.778" layer="96"/>
</instance>
<instance part="GND37" gate="1" x="210.82" y="104.14"/>
<instance part="GND38" gate="1" x="223.52" y="104.14"/>
<instance part="GND39" gate="1" x="231.14" y="99.06"/>
<instance part="GND40" gate="1" x="154.94" y="121.92" rot="R90"/>
<instance part="GND41" gate="1" x="160.02" y="124.46" rot="R90"/>
<instance part="GND42" gate="1" x="167.64" y="119.38"/>
<instance part="J3" gate="G$1" x="180.34" y="132.08" rot="R180"/>
<instance part="J4" gate="G$1" x="246.38" y="142.24" smashed="yes" rot="R180">
<attribute name="NAME" x="248.92" y="146.558" size="1.778" layer="95" rot="R180"/>
</instance>
<instance part="U3" gate="G$2" x="213.36" y="175.26"/>
<instance part="GND44" gate="1" x="208.28" y="170.18" rot="R270"/>
</instances>
<busses>
</busses>
<nets>
<net name="+10V" class="0">
<segment>
<pinref part="C1" gate="G$1" pin="1"/>
<pinref part="R13" gate="G$1" pin="1"/>
<wire x1="25.4" y1="175.26" x2="30.48" y2="175.26" width="0.1524" layer="91"/>
<wire x1="25.4" y1="175.26" x2="17.78" y2="175.26" width="0.1524" layer="91"/>
<junction x="25.4" y="175.26"/>
<label x="17.78" y="175.26" size="1.778" layer="95" rot="R180" xref="yes"/>
</segment>
<segment>
<pinref part="P1" gate="G$1" pin="2"/>
<wire x1="15.24" y1="73.66" x2="22.86" y2="73.66" width="0.1524" layer="91"/>
<label x="22.86" y="73.66" size="1.778" layer="95" xref="yes"/>
</segment>
</net>
<net name="N$2" class="0">
<segment>
<pinref part="R13" gate="G$1" pin="2"/>
<pinref part="C2" gate="G$1" pin="1"/>
<wire x1="40.64" y1="175.26" x2="43.18" y2="175.26" width="0.1524" layer="91"/>
<pinref part="C3" gate="G$1" pin="+"/>
<wire x1="43.18" y1="175.26" x2="55.88" y2="175.26" width="0.1524" layer="91"/>
<junction x="43.18" y="175.26"/>
<pinref part="U1" gate="A" pin="IN"/>
<wire x1="55.88" y1="175.26" x2="68.58" y2="175.26" width="0.1524" layer="91"/>
<junction x="55.88" y="175.26"/>
</segment>
</net>
<net name="GND" class="0">
<segment>
<pinref part="C1" gate="G$1" pin="2"/>
<pinref part="GND1" gate="1" pin="GND"/>
</segment>
<segment>
<pinref part="C2" gate="G$1" pin="2"/>
<pinref part="GND2" gate="1" pin="GND"/>
</segment>
<segment>
<pinref part="C3" gate="G$1" pin="-"/>
<pinref part="GND3" gate="1" pin="GND"/>
</segment>
<segment>
<pinref part="U1" gate="A" pin="GND"/>
<pinref part="GND4" gate="1" pin="GND"/>
</segment>
<segment>
<pinref part="C4" gate="G$1" pin="2"/>
<pinref part="GND5" gate="1" pin="GND"/>
</segment>
<segment>
<pinref part="C5" gate="G$1" pin="-"/>
<pinref part="GND6" gate="1" pin="GND"/>
</segment>
<segment>
<pinref part="C7" gate="G$1" pin="2"/>
<pinref part="GND7" gate="1" pin="GND"/>
</segment>
<segment>
<pinref part="C9" gate="G$1" pin="2"/>
<pinref part="GND8" gate="1" pin="GND"/>
</segment>
<segment>
<pinref part="C10" gate="G$1" pin="2"/>
<pinref part="GND9" gate="1" pin="GND"/>
</segment>
<segment>
<pinref part="C11" gate="G$1" pin="2"/>
<pinref part="GND10" gate="1" pin="GND"/>
</segment>
<segment>
<pinref part="C33" gate="G$1" pin="1"/>
<pinref part="GND11" gate="1" pin="GND"/>
</segment>
<segment>
<pinref part="C8" gate="G$1" pin="2"/>
<pinref part="GND13" gate="1" pin="GND"/>
</segment>
<segment>
<pinref part="C13" gate="G$1" pin="2"/>
<pinref part="GND14" gate="1" pin="GND"/>
</segment>
<segment>
<pinref part="C12" gate="G$1" pin="2"/>
<pinref part="GND15" gate="1" pin="GND"/>
</segment>
<segment>
<pinref part="C6" gate="G$1" pin="2"/>
<pinref part="GND12" gate="1" pin="GND"/>
</segment>
<segment>
<pinref part="U2" gate="G$1" pin="DGND"/>
<wire x1="119.38" y1="124.46" x2="116.84" y2="124.46" width="0.1524" layer="91"/>
<wire x1="116.84" y1="124.46" x2="116.84" y2="121.92" width="0.1524" layer="91"/>
<pinref part="U2" gate="G$1" pin="DGND@1"/>
<wire x1="116.84" y1="121.92" x2="116.84" y2="119.38" width="0.1524" layer="91"/>
<wire x1="116.84" y1="119.38" x2="116.84" y2="116.84" width="0.1524" layer="91"/>
<wire x1="116.84" y1="116.84" x2="119.38" y2="116.84" width="0.1524" layer="91"/>
<pinref part="U2" gate="G$1" pin="AGND@1"/>
<wire x1="119.38" y1="119.38" x2="116.84" y2="119.38" width="0.1524" layer="91"/>
<junction x="116.84" y="119.38"/>
<pinref part="U2" gate="G$1" pin="AGND"/>
<wire x1="119.38" y1="121.92" x2="116.84" y2="121.92" width="0.1524" layer="91"/>
<junction x="116.84" y="121.92"/>
<wire x1="116.84" y1="119.38" x2="114.3" y2="119.38" width="0.1524" layer="91"/>
<pinref part="GND16" gate="1" pin="GND"/>
</segment>
<segment>
<pinref part="C16" gate="G$1" pin="1"/>
<pinref part="GND17" gate="1" pin="GND"/>
</segment>
<segment>
<pinref part="C17" gate="G$1" pin="1"/>
<pinref part="GND18" gate="1" pin="GND"/>
</segment>
<segment>
<pinref part="C18" gate="G$1" pin="1"/>
<pinref part="GND19" gate="1" pin="GND"/>
</segment>
<segment>
<pinref part="C19" gate="G$1" pin="1"/>
<pinref part="GND20" gate="1" pin="GND"/>
</segment>
<segment>
<pinref part="C20" gate="G$1" pin="1"/>
<pinref part="GND21" gate="1" pin="GND"/>
</segment>
<segment>
<pinref part="C21" gate="G$1" pin="1"/>
<pinref part="GND22" gate="1" pin="GND"/>
</segment>
<segment>
<pinref part="C23" gate="G$1" pin="1"/>
<pinref part="GND24" gate="1" pin="GND"/>
</segment>
<segment>
<pinref part="C24" gate="G$1" pin="1"/>
<pinref part="GND25" gate="1" pin="GND"/>
</segment>
<segment>
<pinref part="C25" gate="G$1" pin="1"/>
<pinref part="GND26" gate="1" pin="GND"/>
</segment>
<segment>
<pinref part="C22" gate="G$1" pin="1"/>
<pinref part="GND23" gate="1" pin="GND"/>
</segment>
<segment>
<pinref part="R2" gate="G$1" pin="1"/>
<pinref part="GND27" gate="1" pin="GND"/>
</segment>
<segment>
<pinref part="R6" gate="G$1" pin="2"/>
<pinref part="GND28" gate="1" pin="GND"/>
</segment>
<segment>
<pinref part="P1" gate="G$1" pin="1"/>
<pinref part="GND29" gate="1" pin="GND"/>
<wire x1="15.24" y1="76.2" x2="17.78" y2="76.2" width="0.1524" layer="91"/>
</segment>
<segment>
<pinref part="R12" gate="G$1" pin="2"/>
<pinref part="GND30" gate="1" pin="GND"/>
</segment>
<segment>
<pinref part="R5" gate="G$1" pin="2"/>
<pinref part="GND31" gate="1" pin="GND"/>
</segment>
<segment>
<pinref part="C31" gate="G$1" pin="1"/>
<pinref part="GND32" gate="1" pin="GND"/>
</segment>
<segment>
<pinref part="C34" gate="G$1" pin="1"/>
<pinref part="GND33" gate="1" pin="GND"/>
</segment>
<segment>
<pinref part="C35" gate="G$1" pin="1"/>
<pinref part="GND34" gate="1" pin="GND"/>
</segment>
<segment>
<pinref part="C26" gate="G$1" pin="2"/>
<pinref part="GND35" gate="1" pin="GND"/>
</segment>
<segment>
<pinref part="C28" gate="G$1" pin="1"/>
<pinref part="GND36" gate="1" pin="GND"/>
</segment>
<segment>
<pinref part="XF1" gate="G$1" pin="GND"/>
<pinref part="GND37" gate="1" pin="GND"/>
</segment>
<segment>
<pinref part="C29" gate="G$1" pin="1"/>
<pinref part="GND38" gate="1" pin="GND"/>
</segment>
<segment>
<pinref part="L2" gate="G$1" pin="P$2"/>
<pinref part="GND39" gate="1" pin="GND"/>
</segment>
<segment>
<pinref part="U2" gate="G$1" pin="VINP"/>
<pinref part="GND41" gate="1" pin="GND"/>
<wire x1="149.86" y1="124.46" x2="157.48" y2="124.46" width="0.1524" layer="91"/>
</segment>
<segment>
<pinref part="U2" gate="G$1" pin="VINN"/>
<pinref part="GND40" gate="1" pin="GND"/>
<wire x1="149.86" y1="121.92" x2="152.4" y2="121.92" width="0.1524" layer="91"/>
</segment>
<segment>
<pinref part="R4" gate="G$1" pin="2"/>
<pinref part="GND42" gate="1" pin="GND"/>
</segment>
<segment>
<pinref part="U3" gate="G$2" pin="GND"/>
<pinref part="GND44" gate="1" pin="GND"/>
<wire x1="208.28" y1="170.18" x2="210.82" y2="170.18" width="0.1524" layer="91"/>
</segment>
</net>
<net name="N$3" class="0">
<segment>
<pinref part="R8" gate="G$1" pin="2"/>
<pinref part="C33" gate="G$1" pin="2"/>
<wire x1="182.88" y1="175.26" x2="190.5" y2="175.26" width="0.1524" layer="91"/>
<pinref part="U3" gate="G$2" pin="VCC"/>
<wire x1="190.5" y1="175.26" x2="208.28" y2="175.26" width="0.1524" layer="91"/>
<junction x="190.5" y="175.26"/>
</segment>
</net>
<net name="N$4" class="0">
<segment>
<pinref part="C26" gate="G$1" pin="1"/>
<pinref part="R3" gate="G$1" pin="2"/>
<wire x1="86.36" y1="127" x2="88.9" y2="127" width="0.1524" layer="91"/>
<pinref part="R1" gate="G$1" pin="1"/>
<wire x1="88.9" y1="127" x2="91.44" y2="127" width="0.1524" layer="91"/>
<wire x1="88.9" y1="132.08" x2="88.9" y2="127" width="0.1524" layer="91"/>
<junction x="88.9" y="127"/>
<pinref part="R2" gate="G$1" pin="2"/>
<wire x1="88.9" y1="127" x2="88.9" y2="124.46" width="0.1524" layer="91"/>
</segment>
</net>
<net name="N$5" class="0">
<segment>
<pinref part="R3" gate="G$1" pin="1"/>
<pinref part="U2" gate="G$1" pin="CLKIN"/>
<wire x1="101.6" y1="127" x2="106.68" y2="127" width="0.1524" layer="91"/>
<pinref part="J1" gate="G$1" pin="1"/>
<wire x1="106.68" y1="127" x2="119.38" y2="127" width="0.1524" layer="91"/>
<junction x="106.68" y="127"/>
</segment>
</net>
<net name="BD0" class="0">
<segment>
<pinref part="U2" gate="G$1" pin="D0"/>
<wire x1="119.38" y1="109.22" x2="15.24" y2="109.22" width="0.1524" layer="91"/>
<pinref part="C16" gate="G$1" pin="2"/>
<wire x1="15.24" y1="109.22" x2="12.7" y2="109.22" width="0.1524" layer="91"/>
<junction x="15.24" y="109.22"/>
<label x="12.7" y="109.22" size="1.778" layer="95" rot="R180" xref="yes"/>
</segment>
<segment>
<pinref part="P1" gate="G$1" pin="6"/>
<wire x1="15.24" y1="63.5" x2="25.4" y2="63.5" width="0.1524" layer="91"/>
<label x="25.4" y="63.5" size="1.778" layer="95" xref="yes"/>
</segment>
</net>
<net name="BD1" class="0">
<segment>
<pinref part="C17" gate="G$1" pin="2"/>
<pinref part="U2" gate="G$1" pin="D1"/>
<wire x1="30.48" y1="106.68" x2="119.38" y2="106.68" width="0.1524" layer="91"/>
<wire x1="30.48" y1="106.68" x2="27.94" y2="106.68" width="0.1524" layer="91"/>
<junction x="30.48" y="106.68"/>
<label x="27.94" y="106.68" size="1.778" layer="95" rot="R180" xref="yes"/>
</segment>
<segment>
<wire x1="15.24" y1="71.12" x2="33.02" y2="71.12" width="0.1524" layer="91"/>
<label x="35.56" y="71.12" size="1.778" layer="95" xref="yes"/>
<pinref part="R11" gate="G$1" pin="2"/>
<wire x1="33.02" y1="71.12" x2="35.56" y2="71.12" width="0.1524" layer="91"/>
<wire x1="33.02" y1="73.66" x2="33.02" y2="71.12" width="0.1524" layer="91"/>
<junction x="33.02" y="71.12"/>
<pinref part="P1" gate="G$1" pin="3"/>
</segment>
</net>
<net name="BD2" class="0">
<segment>
<pinref part="U2" gate="G$1" pin="D2"/>
<pinref part="C18" gate="G$1" pin="2"/>
<wire x1="119.38" y1="104.14" x2="45.72" y2="104.14" width="0.1524" layer="91"/>
<wire x1="45.72" y1="104.14" x2="43.18" y2="104.14" width="0.1524" layer="91"/>
<junction x="45.72" y="104.14"/>
<label x="43.18" y="104.14" size="1.778" layer="95" rot="R180" xref="yes"/>
</segment>
<segment>
<wire x1="15.24" y1="68.58" x2="38.1" y2="68.58" width="0.1524" layer="91"/>
<label x="43.18" y="68.58" size="1.778" layer="95" xref="yes"/>
<pinref part="R12" gate="G$1" pin="1"/>
<wire x1="38.1" y1="68.58" x2="43.18" y2="68.58" width="0.1524" layer="91"/>
<wire x1="38.1" y1="66.04" x2="38.1" y2="68.58" width="0.1524" layer="91"/>
<junction x="38.1" y="68.58"/>
<pinref part="P1" gate="G$1" pin="4"/>
</segment>
</net>
<net name="BD3" class="0">
<segment>
<pinref part="U2" gate="G$1" pin="D3"/>
<pinref part="C19" gate="G$1" pin="2"/>
<wire x1="119.38" y1="101.6" x2="60.96" y2="101.6" width="0.1524" layer="91"/>
<wire x1="60.96" y1="101.6" x2="58.42" y2="101.6" width="0.1524" layer="91"/>
<junction x="60.96" y="101.6"/>
<label x="58.42" y="101.6" size="1.778" layer="95" rot="R180" xref="yes"/>
</segment>
<segment>
<pinref part="P1" gate="G$1" pin="5"/>
<wire x1="15.24" y1="66.04" x2="17.78" y2="66.04" width="0.1524" layer="91"/>
<label x="17.78" y="66.04" size="1.778" layer="95" xref="yes"/>
</segment>
</net>
<net name="BD4" class="0">
<segment>
<pinref part="U2" gate="G$1" pin="D4"/>
<pinref part="C20" gate="G$1" pin="2"/>
<wire x1="119.38" y1="99.06" x2="76.2" y2="99.06" width="0.1524" layer="91"/>
<wire x1="76.2" y1="99.06" x2="73.66" y2="99.06" width="0.1524" layer="91"/>
<junction x="76.2" y="99.06"/>
<label x="73.66" y="99.06" size="1.778" layer="95" rot="R180" xref="yes"/>
</segment>
<segment>
<pinref part="P1" gate="G$1" pin="10"/>
<wire x1="15.24" y1="53.34" x2="25.4" y2="53.34" width="0.1524" layer="91"/>
<label x="25.4" y="53.34" size="1.778" layer="95" xref="yes"/>
</segment>
</net>
<net name="BD5" class="0">
<segment>
<pinref part="U2" gate="G$1" pin="D5"/>
<pinref part="C21" gate="G$1" pin="2"/>
<wire x1="119.38" y1="96.52" x2="91.44" y2="96.52" width="0.1524" layer="91"/>
<wire x1="91.44" y1="96.52" x2="88.9" y2="96.52" width="0.1524" layer="91"/>
<junction x="91.44" y="96.52"/>
<label x="88.9" y="96.52" size="1.778" layer="95" rot="R180" xref="yes"/>
</segment>
<segment>
<pinref part="P1" gate="G$1" pin="11"/>
<wire x1="15.24" y1="50.8" x2="17.78" y2="50.8" width="0.1524" layer="91"/>
<label x="17.78" y="50.8" size="1.778" layer="95" xref="yes"/>
</segment>
</net>
<net name="BD6" class="0">
<segment>
<pinref part="U2" gate="G$1" pin="D6"/>
<wire x1="119.38" y1="93.98" x2="99.06" y2="93.98" width="0.1524" layer="91"/>
<wire x1="99.06" y1="93.98" x2="99.06" y2="71.12" width="0.1524" layer="91"/>
<pinref part="C22" gate="G$1" pin="2"/>
<wire x1="99.06" y1="71.12" x2="60.96" y2="71.12" width="0.1524" layer="91"/>
<wire x1="60.96" y1="71.12" x2="58.42" y2="71.12" width="0.1524" layer="91"/>
<junction x="60.96" y="71.12"/>
<label x="58.42" y="71.12" size="1.778" layer="95" rot="R180" xref="yes"/>
</segment>
<segment>
<pinref part="P1" gate="G$1" pin="12"/>
<wire x1="15.24" y1="48.26" x2="25.4" y2="48.26" width="0.1524" layer="91"/>
<label x="25.4" y="48.26" size="1.778" layer="95" xref="yes"/>
</segment>
</net>
<net name="BD7" class="0">
<segment>
<pinref part="C23" gate="G$1" pin="2"/>
<wire x1="76.2" y1="68.58" x2="101.6" y2="68.58" width="0.1524" layer="91"/>
<wire x1="101.6" y1="68.58" x2="101.6" y2="91.44" width="0.1524" layer="91"/>
<pinref part="U2" gate="G$1" pin="D7"/>
<wire x1="101.6" y1="91.44" x2="119.38" y2="91.44" width="0.1524" layer="91"/>
<wire x1="76.2" y1="68.58" x2="73.66" y2="68.58" width="0.1524" layer="91"/>
<junction x="76.2" y="68.58"/>
<label x="73.66" y="68.58" size="1.778" layer="95" rot="R180" xref="yes"/>
</segment>
<segment>
<pinref part="P1" gate="G$1" pin="9"/>
<wire x1="15.24" y1="55.88" x2="17.78" y2="55.88" width="0.1524" layer="91"/>
<label x="17.78" y="55.88" size="1.778" layer="95" xref="yes"/>
</segment>
</net>
<net name="FQUD" class="0">
<segment>
<pinref part="U2" gate="G$1" pin="FQ_UD"/>
<wire x1="119.38" y1="88.9" x2="104.14" y2="88.9" width="0.1524" layer="91"/>
<wire x1="104.14" y1="88.9" x2="104.14" y2="66.04" width="0.1524" layer="91"/>
<pinref part="C24" gate="G$1" pin="2"/>
<wire x1="104.14" y1="66.04" x2="96.52" y2="66.04" width="0.1524" layer="91"/>
<wire x1="96.52" y1="66.04" x2="91.44" y2="66.04" width="0.1524" layer="91"/>
<wire x1="91.44" y1="66.04" x2="88.9" y2="66.04" width="0.1524" layer="91"/>
<junction x="91.44" y="66.04"/>
<label x="88.9" y="66.04" size="1.778" layer="95" rot="R180" xref="yes"/>
<pinref part="D8" gate="G$1" pin="C"/>
<wire x1="124.46" y1="43.18" x2="96.52" y2="43.18" width="0.1524" layer="91"/>
<wire x1="96.52" y1="43.18" x2="96.52" y2="66.04" width="0.1524" layer="91"/>
<junction x="96.52" y="66.04"/>
</segment>
<segment>
<pinref part="P1" gate="G$1" pin="8"/>
<wire x1="15.24" y1="58.42" x2="25.4" y2="58.42" width="0.1524" layer="91"/>
<label x="25.4" y="58.42" size="1.778" layer="95" xref="yes"/>
</segment>
</net>
<net name="WCLK" class="0">
<segment>
<pinref part="U2" gate="G$1" pin="W_CLK"/>
<wire x1="119.38" y1="86.36" x2="116.84" y2="86.36" width="0.1524" layer="91"/>
<wire x1="116.84" y1="86.36" x2="116.84" y2="58.42" width="0.1524" layer="91"/>
<pinref part="C25" gate="G$1" pin="2"/>
<wire x1="116.84" y1="58.42" x2="116.84" y2="50.8" width="0.1524" layer="91"/>
<wire x1="109.22" y1="58.42" x2="116.84" y2="58.42" width="0.1524" layer="91"/>
<junction x="116.84" y="58.42"/>
<wire x1="109.22" y1="58.42" x2="106.68" y2="58.42" width="0.1524" layer="91"/>
<junction x="109.22" y="58.42"/>
<label x="106.68" y="58.42" size="1.778" layer="95" rot="R180" xref="yes"/>
<pinref part="D7" gate="G$1" pin="C"/>
<wire x1="124.46" y1="50.8" x2="116.84" y2="50.8" width="0.1524" layer="91"/>
</segment>
<segment>
<pinref part="P1" gate="G$1" pin="7"/>
<wire x1="15.24" y1="60.96" x2="17.78" y2="60.96" width="0.1524" layer="91"/>
<label x="17.78" y="60.96" size="1.778" layer="95" xref="yes"/>
</segment>
</net>
<net name="N$6" class="0">
<segment>
<pinref part="D7" gate="G$1" pin="A"/>
<wire x1="129.54" y1="50.8" x2="139.7" y2="50.8" width="0.1524" layer="91"/>
<wire x1="139.7" y1="50.8" x2="139.7" y2="43.18" width="0.1524" layer="91"/>
<pinref part="D8" gate="G$1" pin="A"/>
<wire x1="139.7" y1="43.18" x2="129.54" y2="43.18" width="0.1524" layer="91"/>
<pinref part="R7" gate="G$1" pin="2"/>
<wire x1="139.7" y1="55.88" x2="139.7" y2="50.8" width="0.1524" layer="91"/>
<junction x="139.7" y="50.8"/>
<pinref part="U2" gate="G$1" pin="RESET"/>
<wire x1="149.86" y1="99.06" x2="154.94" y2="99.06" width="0.1524" layer="91"/>
<wire x1="154.94" y1="99.06" x2="154.94" y2="50.8" width="0.1524" layer="91"/>
<wire x1="154.94" y1="50.8" x2="139.7" y2="50.8" width="0.1524" layer="91"/>
</segment>
</net>
<net name="D5V" class="0">
<segment>
<pinref part="R7" gate="G$1" pin="1"/>
<wire x1="139.7" y1="66.04" x2="139.7" y2="71.12" width="0.1524" layer="91"/>
<wire x1="139.7" y1="71.12" x2="142.24" y2="71.12" width="0.1524" layer="91"/>
<label x="142.24" y="71.12" size="1.778" layer="95" xref="yes"/>
</segment>
<segment>
<pinref part="R11" gate="G$1" pin="1"/>
<wire x1="35.56" y1="86.36" x2="33.02" y2="86.36" width="0.1524" layer="91"/>
<wire x1="33.02" y1="86.36" x2="33.02" y2="83.82" width="0.1524" layer="91"/>
<label x="35.56" y="86.36" size="1.778" layer="95" xref="yes"/>
</segment>
<segment>
<pinref part="U1" gate="A" pin="OUT"/>
<pinref part="C4" gate="G$1" pin="1"/>
<pinref part="C5" gate="G$1" pin="+"/>
<wire x1="88.9" y1="175.26" x2="96.52" y2="175.26" width="0.1524" layer="91"/>
<wire x1="96.52" y1="175.26" x2="109.22" y2="175.26" width="0.1524" layer="91"/>
<junction x="96.52" y="175.26"/>
<pinref part="C7" gate="G$1" pin="1"/>
<wire x1="109.22" y1="175.26" x2="127" y2="175.26" width="0.1524" layer="91"/>
<junction x="109.22" y="175.26"/>
<pinref part="C9" gate="G$1" pin="1"/>
<wire x1="127" y1="175.26" x2="139.7" y2="175.26" width="0.1524" layer="91"/>
<junction x="127" y="175.26"/>
<pinref part="C10" gate="G$1" pin="1"/>
<wire x1="139.7" y1="175.26" x2="152.4" y2="175.26" width="0.1524" layer="91"/>
<junction x="139.7" y="175.26"/>
<pinref part="C11" gate="G$1" pin="1"/>
<wire x1="152.4" y1="175.26" x2="165.1" y2="175.26" width="0.1524" layer="91"/>
<junction x="152.4" y="175.26"/>
<pinref part="R8" gate="G$1" pin="1"/>
<wire x1="165.1" y1="175.26" x2="172.72" y2="175.26" width="0.1524" layer="91"/>
<junction x="165.1" y="175.26"/>
<wire x1="83.82" y1="175.26" x2="88.9" y2="175.26" width="0.1524" layer="91"/>
<wire x1="88.9" y1="175.26" x2="88.9" y2="157.48" width="0.1524" layer="91"/>
<pinref part="C6" gate="G$1" pin="1"/>
<wire x1="88.9" y1="157.48" x2="96.52" y2="157.48" width="0.1524" layer="91"/>
<pinref part="C8" gate="G$1" pin="1"/>
<wire x1="96.52" y1="157.48" x2="109.22" y2="157.48" width="0.1524" layer="91"/>
<junction x="96.52" y="157.48"/>
<wire x1="109.22" y1="157.48" x2="116.84" y2="157.48" width="0.1524" layer="91"/>
<junction x="109.22" y="157.48"/>
<pinref part="C13" gate="G$1" pin="1"/>
<pinref part="C12" gate="G$1" pin="1"/>
<wire x1="116.84" y1="157.48" x2="152.4" y2="157.48" width="0.1524" layer="91"/>
<wire x1="152.4" y1="157.48" x2="160.02" y2="157.48" width="0.1524" layer="91"/>
<wire x1="160.02" y1="157.48" x2="172.72" y2="157.48" width="0.1524" layer="91"/>
<junction x="160.02" y="157.48"/>
<pinref part="U2" gate="G$1" pin="AVDD@1"/>
<wire x1="119.38" y1="129.54" x2="116.84" y2="129.54" width="0.1524" layer="91"/>
<wire x1="116.84" y1="129.54" x2="116.84" y2="132.08" width="0.1524" layer="91"/>
<junction x="116.84" y="157.48"/>
<pinref part="U2" gate="G$1" pin="AVDD"/>
<wire x1="116.84" y1="132.08" x2="116.84" y2="157.48" width="0.1524" layer="91"/>
<wire x1="119.38" y1="132.08" x2="116.84" y2="132.08" width="0.1524" layer="91"/>
<junction x="116.84" y="132.08"/>
<pinref part="U2" gate="G$1" pin="DVDD@1"/>
<wire x1="149.86" y1="129.54" x2="152.4" y2="129.54" width="0.1524" layer="91"/>
<wire x1="152.4" y1="129.54" x2="152.4" y2="132.08" width="0.1524" layer="91"/>
<junction x="152.4" y="157.48"/>
<pinref part="U2" gate="G$1" pin="DVDD"/>
<wire x1="152.4" y1="132.08" x2="152.4" y2="157.48" width="0.1524" layer="91"/>
<wire x1="149.86" y1="132.08" x2="152.4" y2="132.08" width="0.1524" layer="91"/>
<junction x="152.4" y="132.08"/>
<pinref part="R1" gate="G$1" pin="2"/>
<wire x1="88.9" y1="142.24" x2="88.9" y2="157.48" width="0.1524" layer="91"/>
<junction x="88.9" y="157.48"/>
<wire x1="96.52" y1="175.26" x2="96.52" y2="180.34" width="0.1524" layer="91"/>
<wire x1="96.52" y1="180.34" x2="99.06" y2="180.34" width="0.1524" layer="91"/>
<label x="99.06" y="180.34" size="1.778" layer="95" xref="yes"/>
</segment>
</net>
<net name="N$8" class="0">
<segment>
<pinref part="U2" gate="G$1" pin="RSET"/>
<pinref part="R6" gate="G$1" pin="1"/>
<wire x1="149.86" y1="104.14" x2="160.02" y2="104.14" width="0.1524" layer="91"/>
<wire x1="160.02" y1="104.14" x2="160.02" y2="101.6" width="0.1524" layer="91"/>
</segment>
</net>
<net name="N$7" class="0">
<segment>
<pinref part="U2" gate="G$1" pin="IOUT"/>
<pinref part="R5" gate="G$1" pin="1"/>
<wire x1="149.86" y1="114.3" x2="167.64" y2="114.3" width="0.1524" layer="91"/>
<wire x1="167.64" y1="114.3" x2="167.64" y2="111.76" width="0.1524" layer="91"/>
<pinref part="C15" gate="G$1" pin="1"/>
<wire x1="167.64" y1="114.3" x2="175.26" y2="114.3" width="0.1524" layer="91"/>
<junction x="167.64" y="114.3"/>
<pinref part="L1" gate="G$1" pin="P$1"/>
<wire x1="175.26" y1="114.3" x2="180.34" y2="114.3" width="0.1524" layer="91"/>
<junction x="175.26" y="114.3"/>
</segment>
</net>
<net name="N$9" class="0">
<segment>
<pinref part="C15" gate="G$1" pin="2"/>
<wire x1="175.26" y1="106.68" x2="175.26" y2="104.14" width="0.1524" layer="91"/>
<wire x1="175.26" y1="104.14" x2="177.8" y2="104.14" width="0.1524" layer="91"/>
<pinref part="J2" gate="G$1" pin="1"/>
</segment>
</net>
<net name="N$11" class="0">
<segment>
<pinref part="U3" gate="G$1" pin="OUT"/>
<pinref part="R14" gate="G$1" pin="2"/>
<wire x1="228.6" y1="157.48" x2="231.14" y2="157.48" width="0.1524" layer="91"/>
<wire x1="228.6" y1="139.7" x2="228.6" y2="142.24" width="0.1524" layer="91"/>
<junction x="228.6" y="157.48"/>
<pinref part="C34" gate="G$1" pin="2"/>
<pinref part="R10" gate="G$1" pin="1"/>
<wire x1="228.6" y1="142.24" x2="228.6" y2="157.48" width="0.1524" layer="91"/>
<wire x1="220.98" y1="142.24" x2="228.6" y2="142.24" width="0.1524" layer="91"/>
<junction x="228.6" y="142.24"/>
</segment>
</net>
<net name="N$13" class="0">
<segment>
<pinref part="R14" gate="G$1" pin="1"/>
<pinref part="L3" gate="G$1" pin="P$1"/>
<wire x1="243.84" y1="157.48" x2="241.3" y2="157.48" width="0.1524" layer="91"/>
</segment>
</net>
<net name="N$12" class="0">
<segment>
<pinref part="C31" gate="G$1" pin="2"/>
<pinref part="R9" gate="G$1" pin="1"/>
<wire x1="203.2" y1="144.78" x2="203.2" y2="142.24" width="0.1524" layer="91"/>
<pinref part="R10" gate="G$1" pin="2"/>
<wire x1="203.2" y1="142.24" x2="203.2" y2="139.7" width="0.1524" layer="91"/>
<wire x1="210.82" y1="142.24" x2="203.2" y2="142.24" width="0.1524" layer="91"/>
<junction x="203.2" y="142.24"/>
</segment>
</net>
<net name="N$14" class="0">
<segment>
<pinref part="L3" gate="G$1" pin="P$2"/>
<pinref part="C35" gate="G$1" pin="2"/>
<wire x1="243.84" y1="144.78" x2="243.84" y2="142.24" width="0.1524" layer="91"/>
<pinref part="J4" gate="G$1" pin="1"/>
<wire x1="243.84" y1="142.24" x2="243.84" y2="139.7" width="0.1524" layer="91"/>
<junction x="243.84" y="142.24"/>
</segment>
</net>
<net name="N$15" class="0">
<segment>
<pinref part="L1" gate="G$1" pin="P$2"/>
<pinref part="C28" gate="G$1" pin="2"/>
<wire x1="193.04" y1="114.3" x2="198.12" y2="114.3" width="0.1524" layer="91"/>
<pinref part="XF1" gate="G$1" pin="IN"/>
<wire x1="198.12" y1="114.3" x2="203.2" y2="114.3" width="0.1524" layer="91"/>
<junction x="198.12" y="114.3"/>
</segment>
</net>
<net name="N$16" class="0">
<segment>
<pinref part="XF1" gate="G$1" pin="OUT"/>
<pinref part="C29" gate="G$1" pin="2"/>
<wire x1="218.44" y1="114.3" x2="220.98" y2="114.3" width="0.1524" layer="91"/>
<pinref part="L2" gate="G$1" pin="P$1"/>
<wire x1="220.98" y1="114.3" x2="223.52" y2="114.3" width="0.1524" layer="91"/>
<wire x1="223.52" y1="114.3" x2="231.14" y2="114.3" width="0.1524" layer="91"/>
<junction x="223.52" y="114.3"/>
<wire x1="220.98" y1="114.3" x2="220.98" y2="121.92" width="0.1524" layer="91"/>
<junction x="220.98" y="114.3"/>
<wire x1="220.98" y1="121.92" x2="193.04" y2="121.92" width="0.1524" layer="91"/>
<pinref part="C30" gate="G$1" pin="1"/>
<wire x1="193.04" y1="139.7" x2="193.04" y2="121.92" width="0.1524" layer="91"/>
</segment>
</net>
<net name="N$17" class="0">
<segment>
<pinref part="U3" gate="G$1" pin="IN"/>
<pinref part="R9" gate="G$1" pin="2"/>
<wire x1="203.2" y1="154.94" x2="203.2" y2="157.48" width="0.1524" layer="91"/>
<wire x1="203.2" y1="157.48" x2="205.74" y2="157.48" width="0.1524" layer="91"/>
<junction x="203.2" y="157.48"/>
<wire x1="193.04" y1="157.48" x2="203.2" y2="157.48" width="0.1524" layer="91"/>
<pinref part="C30" gate="G$1" pin="2"/>
<wire x1="193.04" y1="147.32" x2="193.04" y2="157.48" width="0.1524" layer="91"/>
</segment>
</net>
<net name="N$10" class="0">
<segment>
<pinref part="U2" gate="G$1" pin="IOUTB"/>
<wire x1="149.86" y1="127" x2="162.56" y2="127" width="0.1524" layer="91"/>
<wire x1="162.56" y1="127" x2="162.56" y2="132.08" width="0.1524" layer="91"/>
<pinref part="R4" gate="G$1" pin="1"/>
<wire x1="162.56" y1="132.08" x2="167.64" y2="132.08" width="0.1524" layer="91"/>
<pinref part="C14" gate="G$1" pin="1"/>
<wire x1="167.64" y1="132.08" x2="170.18" y2="132.08" width="0.1524" layer="91"/>
<junction x="167.64" y="132.08"/>
</segment>
</net>
<net name="N$18" class="0">
<segment>
<pinref part="C14" gate="G$1" pin="2"/>
<pinref part="J3" gate="G$1" pin="1"/>
</segment>
</net>
</nets>
</sheet>
</sheets>
</schematic>
</drawing>
</eagle>
